src/LFSR/simulation/qsim/LFSR.msim.vcd
$comment
	File created using the following command:
		vcd file LFSR.msim.vcd -direction
$end
$date
	Tue Jun 07 21:12:30 2022
$end
$version
	ModelSim Version 10.1d
$end
$timescale
	1ps
$end
$scope module LFSR_vlg_vec_tst $end
$var reg 1 ! i_Clk $end
$var reg 1 " i_Enable $end
$var reg 5 # i_Seed_Data [4:0] $end
$var reg 1 $ i_Seed_DV $end
$var wire 1 % o_LFSR_Data [4] $end
$var wire 1 & o_LFSR_Data [3] $end
$var wire 1 ' o_LFSR_Data [2] $end
$var wire 1 ( o_LFSR_Data [1] $end
$var wire 1 ) o_LFSR_Data [0] $end
$var wire 1 * o_LFSR_Done $end
$var wire 1 + sampler $end
$scope module i1 $end
$var wire 1 , gnd $end
$var wire 1 - vcc $end
$var wire 1 . unknown $end
$var tri1 1 / devclrn $end
$var tri1 1 0 devpor $end
$var tri1 1 1 devoe $end
$var wire 1 2 o_LFSR_Data[0]~output_o $end
$var wire 1 3 o_LFSR_Data[1]~output_o $end
$var wire 1 4 o_LFSR_Data[2]~output_o $end
$var wire 1 5 o_LFSR_Data[3]~output_o $end
$var wire 1 6 o_LFSR_Data[4]~output_o $end
$var wire 1 7 o_LFSR_Done~output_o $end
$var wire 1 8 i_Clk~input_o $end
$var wire 1 9 i_Clk~inputclkctrl_outclk $end
$var wire 1 : i_Seed_Data[0]~input_o $end
$var wire 1 ; i_Seed_DV~input_o $end
$var wire 1 < i_Seed_Data[2]~input_o $end
$var wire 1 = i_Seed_Data[1]~input_o $end
$var wire 1 > r_LFSR~1_combout $end
$var wire 1 ? i_Enable~input_o $end
$var wire 1 @ r_LFSR~2_combout $end
$var wire 1 A i_Seed_Data[4]~input_o $end
$var wire 1 B i_Seed_Data[3]~input_o $end
$var wire 1 C r_LFSR~3_combout $end
$var wire 1 D r_LFSR~4_combout $end
$var wire 1 E r_LFSR~0_combout $end
$var wire 1 F Equal0~1_combout $end
$var wire 1 G Equal0~0_combout $end
$var wire 1 H Equal0~2_combout $end
$var wire 1 I r_LFSR [5] $end
$var wire 1 J r_LFSR [4] $end
$var wire 1 K r_LFSR [3] $end
$var wire 1 L r_LFSR [2] $end
$var wire 1 M r_LFSR [1] $end
$upscope $end
$upscope $end
$enddefinitions $end
#0
$dumpvars
0!
0"
b0 #
0$
0)
0(
0'
0&
0%
1*
x+
0,
1-
x.
1/
10
11
02
03
04
05
06
17
08
09
0:
0;
0<
0=
0>
0?
0@
0A
0B
0C
0D
1E
1F
1G
1H
0M
0L
0K
0J
0I
$end
#2500
1!
18
19
0+
#5000
b10000 #
0!
1A
08
09
1+
0H
07
0*
#7500
1!
18
19
0+
#10000
b11000 #
b1000 #
0!
1B
0A
08
09
1+
0F
1H
17
1*
0H
07
0*
#12500
1!
18
19
0+
#15000
b11000 #
0!
1A
08
09
1+
#17500
1!
18
19
0+
#20000
b11100 #
b10100 #
b100 #
0!
1<
0B
0A
08
09
1+
#22500
1!
18
19
0+
#25000
b10100 #
0!
1A
08
09
1+
#27500
1!
18
19
0+
#30000
b11100 #
b1100 #
0!
1B
0A
08
09
1+
#32500
1!
18
19
0+
#35000
b11100 #
0!
1A
08
09
1+
#37500
1!
18
19
0+
#40000
b11110 #
b11010 #
b10010 #
b10 #
0!
1=
0<
0B
0A
08
09
1+
0G
1F
#42500
1!
18
19
0+
#45000
b10010 #
0!
1A
08
09
1+
#47500
1!
18
19
0+
#50000
b11010 #
b1010 #
0!
1B
0A
08
09
1+
0F
#52500
1!
18
19
0+
#55000
b11010 #
0!
1A
08
09
1+
#57500
1!
18
19
0+
#60000
b11110 #
b10110 #
b110 #
0!
1<
0B
0A
08
09
1+
#62500
1!
18
19
0+
#65000
b10110 #
0!
1A
08
09
1+
#67500
1!
18
19
0+
#70000
b11110 #
b1110 #
0!
1B
0A
08
09
1+
#72500
1!
18
19
0+
#75000
b11110 #
0!
1A
08
09
1+
#77500
1!
18
19
0+
#80000
b11111 #
b11101 #
b11001 #
b10001 #
b1 #
0!
1:
0=
0<
0B
0A
08
09
1+
1F
#82500
1!
18
19
0+
#85000
b10001 #
0!
1A
08
09
1+
#87500
1!
18
19
0+
#90000
b11001 #
b1001 #
0!
1B
0A
08
09
1+
0F
#92500
1!
18
19
0+
#95000
b11001 #
0!
1A
08
09
1+
#97500
1!
18
19
0+
#100000
b11101 #
b10101 #
b101 #
0!
1<
0B
0A
08
09
1+
#102500
1!
18
19
0+
#105000
b10101 #
0!
1A
08
09
1+
#107500
1!
18
19
0+
#110000
b11101 #
b1101 #
0!
1B
0A
08
09
1+
#112500
1!
18
19
0+
#115000
b11101 #
0!
1A
08
09
1+
#117500
1!
18
19
0+
#120000
b11111 #
b11011 #
b10011 #
b11 #
0!
1=
0<
0B
0A
08
09
1+
1F
#122500
1!
18
19
0+
#125000
b10011 #
0!
1A
08
09
1+
#127500
1!
18
19
0+
#130000
b11011 #
b1011 #
0!
1B
0A
08
09
1+
0F
#132500
1!
18
19
0+
#135000
b11011 #
0!
1A
08
09
1+
#137500
1!
18
19
0+
#140000
b11111 #
b10111 #
b111 #
0!
1<
0B
0A
08
09
1+
#142500
1!
18
19
0+
#145000
b10111 #
0!
1A
08
09
1+
#147500
1!
18
19
0+
#150000
b11111 #
b1111 #
0!
1B
0A
08
09
1+
#152500
1!
18
19
0+
#155000
b11111 #
0!
1A
08
09
1+
#157500
1!
18
19
0+
#160000
1$
b11110 #
b11100 #
b11000 #
b10000 #
b0 #
0!
1;
0:
0=
0<
0B
0A
08
09
1+
0E
1G
1F
1H
17
1*
#162500
1!
18
19
0+
#165000
b10000 #
0!
1A
08
09
1+
1D
0H
07
0*
#167500
1!
18
19
0+
#170000
b11000 #
b1000 #
0!
1B
0A
08
09
1+
0F
1C
0D
1H
17
1*
0H
07
0*
#172500
1!
18
19
0+
#175000
b11000 #
0!
1A
08
09
1+
1D
#177500
1!
18
19
0+
#180000
b11100 #
b10100 #
b100 #
0!
1<
0B
0A
08
09
1+
1@
0C
0D
#182500
1!
18
19
0+
#185000
b10100 #
0!
1A
08
09
1+
1D
#187500
1!
18
19
0+
#190000
b11100 #
b1100 #
0!
1B
0A
08
09
1+
1C
0D
#192500
1!
18
19
0+
#195000
b11100 #
0!
1A
08
09
1+
1D
#197500
1!
18
19
0+
#200000
b11110 #
b11010 #
b10010 #
b10 #
0!
1=
0<
0B
0A
08
09
1+
0G
1>
1F
0@
0C
0D
#202500
1!
18
19
0+
#205000
b10010 #
0!
1A
08
09
1+
1D
#207500
1!
18
19
0+
#210000
b11010 #
b1010 #
0!
1B
0A
08
09
1+
0F
1C
0D
#212500
1!
18
19
0+
#215000
b11010 #
0!
1A
08
09
1+
1D
#217500
1!
18
19
0+
#220000
b11110 #
b10110 #
b110 #
0!
1<
0B
0A
08
09
1+
1@
0C
0D
#222500
1!
18
19
0+
#225000
b10110 #
0!
1A
08
09
1+
1D
#227500
1!
18
19
0+
#230000
b11110 #
b1110 #
0!
1B
0A
08
09
1+
1C
0D
#232500
1!
18
19
0+
#235000
b11110 #
0!
1A
08
09
1+
1D
#237500
1!
18
19
0+
#240000
b11111 #
b11101 #
b11001 #
b10001 #
b1 #
0!
1:
0=
0<
0B
0A
08
09
1+
1E
0>
1F
0@
0C
0D
#242500
1!
18
19
0+
#245000
b10001 #
0!
1A
08
09
1+
1D
#247500
1!
18
19
0+
#250000
b11001 #
b1001 #
0!
1B
0A
08
09
1+
0F
1C
0D
#252500
1!
18
19
0+
#255000
b11001 #
0!
1A
08
09
1+
1D
#257500
1!
18
19
0+
#260000
b11101 #
b10101 #
b101 #
0!
1<
0B
0A
08
09
1+
1@
0C
0D
#262500
1!
18
19
0+
#265000
b10101 #
0!
1A
08
09
1+
1D
#267500
1!
18
19
0+
#270000
b11101 #
b1101 #
0!
1B
0A
08
09
1+
1C
0D
#272500
1!
18
19
0+
#275000
b11101 #
0!
1A
08
09
1+
1D
#277500
1!
18
19
0+
#280000
b11111 #
b11011 #
b10011 #
b11 #
0!
1=
0<
0B
0A
08
09
1+
1>
1F
0@
0C
0D
#282500
1!
18
19
0+
#285000
b10011 #
0!
1A
08
09
1+
1D
#287500
1!
18
19
0+
#290000
b11011 #
b1011 #
0!
1B
0A
08
09
1+
0F
1C
0D
#292500
1!
18
19
0+
#295000
b11011 #
0!
1A
08
09
1+
1D
#297500
1!
18
19
0+
#300000
b11111 #
b10111 #
b111 #
0!
1<
0B
0A
08
09
1+
1@
0C
0D
#302500
1!
18
19
0+
#305000
b10111 #
0!
1A
08
09
1+
1D
#307500
1!
18
19
0+
#310000
b11111 #
b1111 #
0!
1B
0A
08
09
1+
1C
0D
#312500
1!
18
19
0+
#315000
b11111 #
0!
1A
08
09
1+
1D
#317500
1!
18
19
0+
#320000
1"
0$
b11110 #
b11100 #
b11000 #
b10000 #
b0 #
0!
1?
0;
0:
0=
0<
0B
0A
08
09
1+
0D
0C
0@
0>
1G
1F
1H
17
1*
#322500
1!
18
19
0+
1M
0G
1>
12
1)
0H
07
0*
#325000
b10000 #
0!
1A
08
09
1+
#327500
1!
18
19
0+
1L
1@
13
1(
#330000
b11000 #
b1000 #
0!
1B
0A
08
09
1+
0F
#332500
1!
18
19
0+
1K
0E
1C
14
1'
#335000
b11000 #
0!
1A
08
09
1+
#337500
1!
18
19
0+
0M
1J
0>
1D
02
15
0)
1&
#340000
b11100 #
b10100 #
b100 #
0!
1<
0B
0A
08
09
1+
#342500
1!
18
19
0+
1I
0L
1E
1G
0@
16
03
1%
0(
#345000
b10100 #
0!
1A
08
09
1+
#347500
1!
18
19
0+
1M
0K
0G
1>
0E
0C
12
04
1)
0'
#350000
b11100 #
b1100 #
0!
1B
0A
08
09
1+
#352500
1!
18
19
0+
0M
0J
1L
0>
0D
1@
02
05
13
0)
0&
1(
#355000
b11100 #
0!
1A
08
09
1+
#357500
1!
18
19
0+
0I
1K
0L
1C
1G
0@
06
14
03
0%
1'
0(
#360000
b11110 #
b11010 #
b10010 #
b10 #
0!
1=
0<
0B
0A
08
09
1+
0G
#362500
1!
18
19
0+
1J
0K
1D
1E
0C
15
04
1&
0'
#365000
b10010 #
0!
1A
08
09
1+
#367500
1!
18
19
0+
1M
1I
0J
1>
0E
1F
0D
12
16
05
1)
1%
0&
#370000
b11010 #
b1010 #
0!
1B
0A
08
09
1+
0F
#372500
1!
18
19
0+
0M
0I
1L
1G
0>
1E
1@
02
06
13
0)
0%
1(
#375000
b11010 #
0!
1A
08
09
1+
#377500
1!
18
19
0+
1M
1K
0L
0G
1>
0E
1C
0@
12
14
03
1)
1'
0(
#380000
b11110 #
b10110 #
b110 #
0!
1<
0B
0A
08
09
1+
1F
#382500
1!
18
19
0+
0M
1J
0K
1L
1G
0>
0F
1D
1E
0C
1@
02
15
04
13
0)
1&
0'
1(
#385000
b10110 #
0!
1A
08
09
1+
#387500
1!
18
19
0+
1M
1I
0J
1K
0L
0G
1>
1F
0D
1C
0@
12
16
05
14
03
1)
1%
0&
1'
0(
#390000
b11110 #
b1110 #
0!
1B
0A
08
09
1+
0F
#392500
1!
18
19
0+
0I
1J
0K
1L
1D
0C
1@
06
15
04
13
0%
1&
0'
1(
#395000
b11110 #
0!
1A
08
09
1+
#397500
1!
18
19
0+
1I
0J
1K
0D
1C
16
05
14
1%
0&
1'
#400000
b11111 #
b11101 #
b11001 #
b10001 #
b1 #
0!
1:
0=
0<
0B
0A
08
09
1+
#402500
1!
18
19
0+
0I
1J
0E
1D
06
15
0%
1&
#405000
b10001 #
0!
1A
08
09
1+
#407500
1!
18
19
0+
0M
1I
0>
1E
02
16
0)
1%
#410000
b11001 #
b1001 #
0!
1B
0A
08
09
1+
#412500
1!
18
19
0+
1M
0L
1G
1>
0@
12
03
1)
0(
#415000
b11001 #
0!
1A
08
09
1+
#417500
1!
18
19
0+
0K
1L
1F
0E
0C
0G
1@
04
13
0'
1(
#420000
b11101 #
b10101 #
b101 #
0!
1<
0B
0A
08
09
1+
0F
#422500
1!
18
19
0+
0M
0J
1K
0>
1F
0D
1E
1C
02
05
14
0)
0&
1'
#425000
b10101 #
0!
1A
08
09
1+
#427500
1!
18
19
0+
1M
0I
1J
0L
1G
1>
0E
0F
1D
0@
12
06
15
03
1)
0%
1&
0(
#430000
b11101 #
b1101 #
0!
1B
0A
08
09
1+
1F
1H
17
1*
#432500
1!
18
19
0+
0M
1I
0K
1L
0G
0>
0F
0C
1@
02
16
04
13
0)
1%
0'
1(
0H
07
0*
#435000
b11101 #
0!
1A
08
09
1+
#437500
1!
18
19
0+
0J
1K
0L
0D
1E
1C
0@
05
14
03
0&
1'
0(
#440000
b11111 #
b11011 #
b10011 #
b11 #
0!
1=
0<
0B
0A
08
09
1+
#442500
1!
18
19
0+
1M
0I
1J
0K
1>
1D
0C
12
06
15
04
1)
0%
1&
0'
#445000
b10011 #
0!
1A
08
09
1+
#447500
1!
18
19
0+
1I
0J
1L
0E
1F
0D
1G
1@
16
05
13
1%
0&
1(
1H
17
1*
#450000
b11011 #
b1011 #
0!
1B
0A
08
09
1+
0F
0H
07
0*
#452500
1!
18
19
0+
0M
0I
1K
0G
0>
1C
02
06
14
0)
0%
1'
#455000
b11011 #
0!
1A
08
09
1+
#457500
1!
18
19
0+
1J
0L
1D
0@
15
03
1&
0(
#460000
b11111 #
b10111 #
b111 #
0!
1<
0B
0A
08
09
1+
#462500
1!
18
19
0+
1I
0K
0C
16
04
1%
0'
#465000
b10111 #
0!
1A
08
09
1+
#467500
1!
18
19
0+
0J
0D
05
0&
#470000
b11111 #
b1111 #
0!
1B
0A
08
09
1+
#472500
1!
18
19
0+
0I
1E
06
0%
#475000
b11111 #
0!
1A
08
09
1+
#477500
1!
18
19
0+
1M
1>
12
1)
#480000
1$
b11110 #
b11100 #
b11000 #
b10000 #
b0 #
0!
1;
0:
0=
0<
0B
0A
08
09
1+
0E
0>
1F
#482500
1!
18
19
0+
0M
1G
02
0)
1H
17
1*
#485000
b10000 #
0!
1A
08
09
1+
1D
0H
07
0*
#487500
1!
18
19
0+
1I
16
1%
1H
17
1*
#490000
b11000 #
b1000 #
0!
1B
0A
08
09
1+
0F
1C
0D
0H
07
0*
#492500
1!
18
19
0+
0I
1J
1F
06
15
0%
1&
1H
17
1*
#495000
b11000 #
0!
1A
08
09
1+
1D
0H
07
0*
#497500
1!
18
19
0+
1I
16
1%
1H
17
1*
#500000
b11100 #
b10100 #
b100 #
0!
1<
0B
0A
08
09
1+
0F
1@
0C
0D
0H
07
0*
#502500
1!
18
19
0+
0I
0J
1K
1F
06
05
14
0%
0&
1'
1H
17
1*
#505000
b10100 #
0!
1A
08
09
1+
1D
0H
07
0*
#507500
1!
18
19
0+
1I
16
1%
1H
17
1*
#510000
b11100 #
b1100 #
0!
1B
0A
08
09
1+
0F
1C
0D
0H
07
0*
#512500
1!
18
19
0+
0I
1J
1F
06
15
0%
1&
1H
17
1*
#515000
b11100 #
0!
1A
08
09
1+
1D
0H
07
0*
#517500
1!
18
19
0+
1I
16
1%
1H
17
1*
#520000
b11110 #
b11010 #
b10010 #
b10 #
0!
1=
0<
0B
0A
08
09
1+
0G
1>
0F
0@
0C
0D
0H
07
0*
#522500
1!
18
19
0+
0I
0J
0K
1L
1F
1G
06
05
04
13
0%
0&
0'
1(
1H
17
1*
#525000
b10010 #
0!
1A
08
09
1+
1D
0H
07
0*
#527500
1!
18
19
0+
1I
16
1%
1H
17
1*
#530000
b11010 #
b1010 #
0!
1B
0A
08
09
1+
0F
1C
0D
0H
07
0*
#532500
1!
18
19
0+
0I
1J
1F
06
15
0%
1&
1H
17
1*
#535000
b11010 #
0!
1A
08
09
1+
1D
0H
07
0*
#537500
1!
18
19
0+
1I
16
1%
1H
17
1*
#540000
b11110 #
b10110 #
b110 #
0!
1<
0B
0A
08
09
1+
0F
1@
0C
0D
0H
07
0*
#542500
1!
18
19
0+
0I
0J
1K
1F
06
05
14
0%
0&
1'
1H
17
1*
#545000
b10110 #
0!
1A
08
09
1+
1D
0H
07
0*
#547500
1!
18
19
0+
1I
16
1%
1H
17
1*
#550000
b11110 #
b1110 #
0!
1B
0A
08
09
1+
0F
1C
0D
0H
07
0*
#552500
1!
18
19
0+
0I
1J
1F
06
15
0%
1&
1H
17
1*
#555000
b11110 #
0!
1A
08
09
1+
1D
0H
07
0*
#557500
1!
18
19
0+
1I
16
1%
1H
17
1*
#560000
b11111 #
b11101 #
b11001 #
b10001 #
b1 #
0!
1:
0=
0<
0B
0A
08
09
1+
0G
1E
0>
0F
0@
0C
0D
0H
07
0*
#562500
1!
18
19
0+
1M
0I
0J
0K
0L
1G
1F
12
06
05
04
03
1)
0%
0&
0'
0(
1H
17
1*
#565000
b10001 #
0!
1A
08
09
1+
1D
0H
07
0*
#567500
1!
18
19
0+
1I
16
1%
1H
17
1*
#570000
b11001 #
b1001 #
0!
1B
0A
08
09
1+
0F
1C
0D
0H
07
0*
#572500
1!
18
19
0+
0I
1J
1F
06
15
0%
1&
1H
17
1*
#575000
b11001 #
0!
1A
08
09
1+
1D
0H
07
0*
#577500
1!
18
19
0+
1I
16
1%
1H
17
1*
#580000
b11101 #
b10101 #
b101 #
0!
1<
0B
0A
08
09
1+
0F
1@
0C
0D
0H
07
0*
#582500
1!
18
19
0+
0I
0J
1K
1F
06
05
14
0%
0&
1'
1H
17
1*
#585000
b10101 #
0!
1A
08
09
1+
1D
0H
07
0*
#587500
1!
18
19
0+
1I
16
1%
1H
17
1*
#590000
b11101 #
b1101 #
0!
1B
0A
08
09
1+
0F
1C
0D
0H
07
0*
#592500
1!
18
19
0+
0I
1J
1F
06
15
0%
1&
1H
17
1*
#595000
b11101 #
0!
1A
08
09
1+
1D
0H
07
0*
#597500
1!
18
19
0+
1I
16
1%
1H
17
1*
#600000
b11111 #
b11011 #
b10011 #
b11 #
0!
1=
0<
0B
0A
08
09
1+
0G
1>
0F
0@
0C
0D
0H
07
0*
#602500
1!
18
19
0+
0I
0J
0K
1L
1F
1G
06
05
04
13
0%
0&
0'
1(
1H
17
1*
#605000
b10011 #
0!
1A
08
09
1+
1D
0H
07
0*
#607500
1!
18
19
0+
1I
16
1%
1H
17
1*
#610000
b11011 #
b1011 #
0!
1B
0A
08
09
1+
0F
1C
0D
0H
07
0*
#612500
1!
18
19
0+
0I
1J
1F
06
15
0%
1&
1H
17
1*
#615000
b11011 #
0!
1A
08
09
1+
1D
0H
07
0*
#617500
1!
18
19
0+
1I
16
1%
1H
17
1*
#620000
b11111 #
b10111 #
b111 #
0!
1<
0B
0A
08
09
1+
0F
1@
0C
0D
0H
07
0*
#622500
1!
18
19
0+
0I
0J
1K
1F
06
05
14
0%
0&
1'
1H
17
1*
#625000
b10111 #
0!
1A
08
09
1+
1D
0H
07
0*
#627500
1!
18
19
0+
1I
16
1%
1H
17
1*
#630000
b11111 #
b1111 #
0!
1B
0A
08
09
1+
0F
1C
0D
0H
07
0*
#632500
1!
18
19
0+
0I
1J
1F
06
15
0%
1&
1H
17
1*
#635000
b11111 #
0!
1A
08
09
1+
1D
0H
07
0*
#637500
1!
18
19
0+
1I
16
1%
1H
17
1*
#640000
0"
0$
b11110 #
b11100 #
b11000 #
b10000 #
b0 #
0!
0?
0;
0:
0=
0<
0B
0A
08
09
1+
0G
0F
0H
07
0*
#642500
1!
18
19
0+
#645000
b10000 #
0!
1A
08
09
1+
#647500
1!
18
19
0+
#650000
b11000 #
b1000 #
0!
1B
0A
08
09
1+
#652500
1!
18
19
0+
#655000
b11000 #
0!
1A
08
09
1+
#657500
1!
18
19
0+
#660000
b11100 #
b10100 #
b100 #
0!
1<
0B
0A
08
09
1+
#662500
1!
18
19
0+
#665000
b10100 #
0!
1A
08
09
1+
#667500
1!
18
19
0+
#670000
b11100 #
b1100 #
0!
1B
0A
08
09
1+
1F
#672500
1!
18
19
0+
#675000
b11100 #
0!
1A
08
09
1+
#677500
1!
18
19
0+
#680000
b11110 #
b11010 #
b10010 #
b10 #
0!
1=
0<
0B
0A
08
09
1+
0F
#682500
1!
18
19
0+
#685000
b10010 #
0!
1A
08
09
1+
#687500
1!
18
19
0+
#690000
b11010 #
b1010 #
0!
1B
0A
08
09
1+
#692500
1!
18
19
0+
#695000
b11010 #
0!
1A
08
09
1+
#697500
1!
18
19
0+
#700000
b11110 #
b10110 #
b110 #
0!
1<
0B
0A
08
09
1+
#702500
1!
18
19
0+
#705000
b10110 #
0!
1A
08
09
1+
#707500
1!
18
19
0+
#710000
b11110 #
b1110 #
0!
1B
0A
08
09
1+
1F
#712500
1!
18
19
0+
#715000
b11110 #
0!
1A
08
09
1+
#717500
1!
18
19
0+
#720000
b11111 #
b11101 #
b11001 #
b10001 #
b1 #
0!
1:
0=
0<
0B
0A
08
09
1+
0F
#722500
1!
18
19
0+
#725000
b10001 #
0!
1A
08
09
1+
#727500
1!
18
19
0+
#730000
b11001 #
b1001 #
0!
1B
0A
08
09
1+
#732500
1!
18
19
0+
#735000
b11001 #
0!
1A
08
09
1+
#737500
1!
18
19
0+
#740000
b11101 #
b10101 #
b101 #
0!
1<
0B
0A
08
09
1+
#742500
1!
18
19
0+
#745000
b10101 #
0!
1A
08
09
1+
#747500
1!
18
19
0+
#750000
b11101 #
b1101 #
0!
1B
0A
08
09
1+
1F
#752500
1!
18
19
0+
#755000
b11101 #
0!
1A
08
09
1+
#757500
1!
18
19
0+
#760000
b11111 #
b11011 #
b10011 #
b11 #
0!
1=
0<
0B
0A
08
09
1+
1G
0F
#762500
1!
18
19
0+
#765000
b10011 #
0!
1A
08
09
1+
#767500
1!
18
19
0+
#770000
b11011 #
b1011 #
0!
1B
0A
08
09
1+
#772500
1!
18
19
0+
#775000
b11011 #
0!
1A
08
09
1+
#777500
1!
18
19
0+
#780000
b11111 #
b10111 #
b111 #
0!
1<
0B
0A
08
09
1+
#782500
1!
18
19
0+
#785000
b10111 #
0!
1A
08
09
1+
#787500
1!
18
19
0+
#790000
b11111 #
b1111 #
0!
1B
0A
08
09
1+
1F
#792500
1!
18
19
0+
#795000
b11111 #
0!
1A
08
09
1+
1H
17
1*
#797500
1!
18
19
0+
#800000
1$
b11110 #
b11100 #
b11000 #
b10000 #
b0 #
0!
1;
0:
0=
0<
0B
0A
08
09
1+
0E
0D
0C
0@
0>
0G
0F
0H
07
0*
#802500
1!
18
19
0+
#805000
b10000 #
0!
1A
08
09
1+
1D
#807500
1!
18
19
0+
#810000
b11000 #
b1000 #
0!
1B
0A
08
09
1+
1C
0D
#812500
1!
18
19
0+
#815000
b11000 #
0!
1A
08
09
1+
1D
#817500
1!
18
19
0+
#820000
b11100 #
b10100 #
b100 #
0!
1<
0B
0A
08
09
1+
1@
0C
0D
#822500
1!
18
19
0+
#825000
b10100 #
0!
1A
08
09
1+
1D
#827500
1!
18
19
0+
#830000
b11100 #
b1100 #
0!
1B
0A
08
09
1+
1F
1C
0D
#832500
1!
18
19
0+
#835000
b11100 #
0!
1A
08
09
1+
1D
#837500
1!
18
19
0+
#840000
b11110 #
b11010 #
b10010 #
b10 #
0!
1=
0<
0B
0A
08
09
1+
1>
0F
0@
0C
0D
#842500
1!
18
19
0+
#845000
b10010 #
0!
1A
08
09
1+
1D
#847500
1!
18
19
0+
#850000
b11010 #
b1010 #
0!
1B
0A
08
09
1+
1C
0D
#852500
1!
18
19
0+
#855000
b11010 #
0!
1A
08
09
1+
1D
#857500
1!
18
19
0+
#860000
b11110 #
b10110 #
b110 #
0!
1<
0B
0A
08
09
1+
1@
0C
0D
#862500
1!
18
19
0+
#865000
b10110 #
0!
1A
08
09
1+
1D
#867500
1!
18
19
0+
#870000
b11110 #
b1110 #
0!
1B
0A
08
09
1+
1F
1C
0D
#872500
1!
18
19
0+
#875000
b11110 #
0!
1A
08
09
1+
1D
#877500
1!
18
19
0+
#880000
b11111 #
b11101 #
b11001 #
b10001 #
b1 #
0!
1:
0=
0<
0B
0A
08
09
1+
1E
0>
0F
0@
0C
0D
#882500
1!
18
19
0+
#885000
b10001 #
0!
1A
08
09
1+
1D
#887500
1!
18
19
0+
#890000
b11001 #
b1001 #
0!
1B
0A
08
09
1+
1C
0D
#892500
1!
18
19
0+
#895000
b11001 #
0!
1A
08
09
1+
1D
#897500
1!
18
19
0+
#900000
b11101 #
b10101 #
b101 #
0!
1<
0B
0A
08
09
1+
1@
0C
0D
#902500
1!
18
19
0+
#905000
b10101 #
0!
1A
08
09
1+
1D
#907500
1!
18
19
0+
#910000
b11101 #
b1101 #
0!
1B
0A
08
09
1+
1F
1C
0D
#912500
1!
18
19
0+
#915000
b11101 #
0!
1A
08
09
1+
1D
#917500
1!
18
19
0+
#920000
b11111 #
b11011 #
b10011 #
b11 #
0!
1=
0<
0B
0A
08
09
1+
1G
1>
0F
0@
0C
0D
#922500
1!
18
19
0+
#925000
b10011 #
0!
1A
08
09
1+
1D
#927500
1!
18
19
0+
#930000
b11011 #
b1011 #
0!
1B
0A
08
09
1+
1C
0D
#932500
1!
18
19
0+
#935000
b11011 #
0!
1A
08
09
1+
1D
#937500
1!
18
19
0+
#940000
b11111 #
b10111 #
b111 #
0!
1<
0B
0A
08
09
1+
1@
0C
0D
#942500
1!
18
19
0+
#945000
b10111 #
0!
1A
08
09
1+
1D
#947500
1!
18
19
0+
#950000
b11111 #
b1111 #
0!
1B
0A
08
09
1+
1F
1C
0D
#952500
1!
18
19
0+
#955000
b11111 #
0!
1A
08
09
1+
1D
1H
17
1*
#957500
1!
18
19
0+
#960000
1"
0$
b11110 #
b11100 #
b11000 #
b10000 #
b0 #
0!
1?
0;
0:
0=
0<
0B
0A
08
09
1+
0G
0F
0H
07
0*
#962500
1!
18
19
0+
#965000
b10000 #
0!
1A
08
09
1+
#967500
1!
18
19
0+
#970000
b11000 #
b1000 #
0!
1B
0A
08
09
1+
#972500
1!
18
19
0+
#975000
b11000 #
0!
1A
08
09
1+
#977500
1!
18
19
0+
#980000
b11100 #
b10100 #
b100 #
0!
1<
0B
0A
08
09
1+
#982500
1!
18
19
0+
#985000
b10100 #
0!
1A
08
09
1+
#987500
1!
18
19
0+
#990000
b11100 #
b1100 #
0!
1B
0A
08
09
1+
1F
#992500
1!
18
19
0+
#995000
b11100 #
0!
1A
08
09
1+
#997500
1!
18
19
0+
