src/final/simulation/qsim/final.msim.vcd
$comment
	File created using the following command:
		vcd file final.msim.vcd -direction
$end
$date
	Mon Jun 20 22:58:47 2022
$end
$version
	ModelSim Version 10.1d
$end
$timescale
	1ps
$end
$scope module final_vlg_vec_tst $end
$var reg 1 ! pin_name1 $end
$var reg 1 " pin_name2 $end
$var reg 1 # pin_name3 $end
$var reg 1 $ pin_name4 $end
$var reg 1 % pin_name5 $end
$var reg 1 & pin_name6 $end
$var wire 1 ' o1 $end
$var wire 1 ( o2 $end
$var wire 1 ) o3 $end
$var wire 1 * o4 $end
$var wire 1 + o5 $end
$var wire 1 , o6 $end
$var wire 1 - sampler $end
$scope module i1 $end
$var wire 1 . gnd $end
$var wire 1 / vcc $end
$var wire 1 0 unknown $end
$var tri1 1 1 devclrn $end
$var tri1 1 2 devpor $end
$var tri1 1 3 devoe $end
$var wire 1 4 o1~output_o $end
$var wire 1 5 o2~output_o $end
$var wire 1 6 o3~output_o $end
$var wire 1 7 o4~output_o $end
$var wire 1 8 o5~output_o $end
$var wire 1 9 o6~output_o $end
$var wire 1 : pin_name6~input_o $end
$var wire 1 ; pin_name5~input_o $end
$var wire 1 < pin_name1~input_o $end
$var wire 1 = pin_name2~input_o $end
$var wire 1 > pin_name3~input_o $end
$var wire 1 ? pin_name4~input_o $end
$var wire 1 @ lfsr|outt [0] $end
$var wire 1 A lfsr|outt [1] $end
$var wire 1 B lfsr|outt [2] $end
$var wire 1 C lfsr|outt [3] $end
$var wire 1 D lfsr|outt [4] $end
$var wire 1 E lfsr|outt [5] $end
$upscope $end
$upscope $end
$enddefinitions $end
#0
$dumpvars
0!
0"
0#
0$
0%
0&
0'
0(
0)
0*
0+
0,
x-
0.
1/
x0
11
12
13
04
05
06
07
08
09
0:
0;
0<
0=
0>
0?
zE
zD
zC
zB
zA
0@
$end
#10000
1&
1:
0-
1@
14
1'
#20000
1%
0&
0:
1-
1;
19
1,
#30000
1&
1:
0-
0@
04
0'
#40000
1$
0%
0&
0:
1-
1?
0;
18
09
1+
0,
#50000
1&
1:
0-
1@
14
1'
#60000
1%
0&
0:
1-
1;
19
1,
#70000
1&
1:
0-
0@
04
0'
#80000
1#
0$
0%
0&
0:
1-
1>
0?
0;
17
08
09
1*
0+
0,
#90000
1&
1:
0-
1@
14
1'
#100000
1%
0&
0:
1-
1;
19
1,
#110000
1&
1:
0-
0@
04
0'
#120000
1$
0%
0&
0:
1-
1?
0;
18
09
1+
0,
#130000
1&
1:
0-
1@
14
1'
#140000
1%
0&
0:
1-
1;
19
1,
#150000
1&
1:
0-
0@
04
0'
#160000
1"
0#
0$
0%
0&
0:
1-
1=
0>
0?
0;
16
07
08
09
1)
0*
0+
0,
#170000
1&
1:
0-
1@
14
1'
#180000
1%
0&
0:
1-
1;
19
1,
#190000
1&
1:
0-
0@
04
0'
#200000
1$
0%
0&
0:
1-
1?
0;
18
09
1+
0,
#210000
1&
1:
0-
1@
14
1'
#220000
1%
0&
0:
1-
1;
19
1,
#230000
1&
1:
0-
0@
04
0'
#240000
1#
0$
0%
0&
0:
1-
1>
0?
0;
17
08
09
1*
0+
0,
#250000
1&
1:
0-
1@
14
1'
#260000
1%
0&
0:
1-
1;
19
1,
#270000
1&
1:
0-
0@
04
0'
#280000
1$
0%
0&
0:
1-
1?
0;
18
09
1+
0,
#290000
1&
1:
0-
1@
14
1'
#300000
1%
0&
0:
1-
1;
19
1,
#310000
1&
1:
0-
0@
04
0'
#320000
1!
0"
0#
0$
0%
0&
0:
1-
1<
0=
0>
0?
0;
15
06
07
08
09
1(
0)
0*
0+
0,
#330000
1&
1:
0-
1@
14
1'
#340000
1%
0&
0:
1-
1;
19
1,
#350000
1&
1:
0-
0@
04
0'
#360000
1$
0%
0&
0:
1-
1?
0;
18
09
1+
0,
#370000
1&
1:
0-
1@
14
1'
#380000
1%
0&
0:
1-
1;
19
1,
#390000
1&
1:
0-
0@
04
0'
#400000
1#
0$
0%
0&
0:
1-
1>
0?
0;
17
08
09
1*
0+
0,
#410000
1&
1:
0-
1@
14
1'
#420000
1%
0&
0:
1-
1;
19
1,
#430000
1&
1:
0-
0@
04
0'
#440000
1$
0%
0&
0:
1-
1?
0;
18
09
1+
0,
#450000
1&
1:
0-
1@
14
1'
#460000
1%
0&
0:
1-
1;
19
1,
#470000
1&
1:
0-
0@
04
0'
#480000
1"
0#
0$
0%
0&
0:
1-
1=
0>
0?
0;
16
07
08
09
1)
0*
0+
0,
#490000
1&
1:
0-
1@
14
1'
#500000
1%
0&
0:
1-
1;
19
1,
#510000
1&
1:
0-
0@
04
0'
#520000
1$
0%
0&
0:
1-
1?
0;
18
09
1+
0,
#530000
1&
1:
0-
1@
14
1'
#540000
1%
0&
0:
1-
1;
19
1,
#550000
1&
1:
0-
0@
04
0'
#560000
1#
0$
0%
0&
0:
1-
1>
0?
0;
17
08
09
1*
0+
0,
#570000
1&
1:
0-
1@
14
1'
#580000
1%
0&
0:
1-
1;
19
1,
#590000
1&
1:
0-
0@
04
0'
#600000
1$
0%
0&
0:
1-
1?
0;
18
09
1+
0,
#610000
1&
1:
0-
1@
14
1'
#620000
1%
0&
0:
1-
1;
19
1,
#630000
1&
1:
0-
0@
04
0'
#640000
0!
0"
0#
0$
0%
0&
0:
1-
0<
0=
0>
0?
0;
05
06
07
08
09
0(
0)
0*
0+
0,
#650000
1&
1:
0-
1@
14
1'
#660000
1%
0&
0:
1-
1;
19
1,
#670000
1&
1:
0-
0@
04
0'
#680000
1$
0%
0&
0:
1-
1?
0;
18
09
1+
0,
#690000
1&
1:
0-
1@
14
1'
#700000
1%
0&
0:
1-
1;
19
1,
#710000
1&
1:
0-
0@
04
0'
#720000
1#
0$
0%
0&
0:
1-
1>
0?
0;
17
08
09
1*
0+
0,
#730000
1&
1:
0-
1@
14
1'
#740000
1%
0&
0:
1-
1;
19
1,
#750000
1&
1:
0-
0@
04
0'
#760000
1$
0%
0&
0:
1-
1?
0;
18
09
1+
0,
#770000
1&
1:
0-
1@
14
1'
#780000
1%
0&
0:
1-
1;
19
1,
#790000
1&
1:
0-
0@
04
0'
#800000
1"
0#
0$
0%
0&
0:
1-
1=
0>
0?
0;
16
07
08
09
1)
0*
0+
0,
#810000
1&
1:
0-
1@
14
1'
#820000
1%
0&
0:
1-
1;
19
1,
#830000
1&
1:
0-
0@
04
0'
#840000
1$
0%
0&
0:
1-
1?
0;
18
09
1+
0,
#850000
1&
1:
0-
1@
14
1'
#860000
1%
0&
0:
1-
1;
19
1,
#870000
1&
1:
0-
0@
04
0'
#880000
1#
0$
0%
0&
0:
1-
1>
0?
0;
17
08
09
1*
0+
0,
#890000
1&
1:
0-
1@
14
1'
#900000
1%
0&
0:
1-
1;
19
1,
#910000
1&
1:
0-
0@
04
0'
#920000
1$
0%
0&
0:
1-
1?
0;
18
09
1+
0,
#930000
1&
1:
0-
1@
14
1'
#940000
1%
0&
0:
1-
1;
19
1,
#950000
1&
1:
0-
0@
04
0'
#960000
1!
0"
0#
0$
0%
0&
0:
1-
1<
0=
0>
0?
0;
15
06
07
08
09
1(
0)
0*
0+
0,
#970000
1&
1:
0-
1@
14
1'
#980000
1%
0&
0:
1-
1;
19
1,
#990000
1&
1:
0-
0@
04
0'
