src/final/cardNumMemory/simulation/qsim/cardNum.msim.vcd
$comment
	File created using the following command:
		vcd file cardNum.msim.vcd -direction
$end
$date
	Tue Jun 21 00:17:40 2022
$end
$version
	ModelSim Version 10.1d
$end
$timescale
	1ps
$end
$scope module cardNum_vlg_vec_tst $end
$var reg 1 ! clk $end
$var reg 3 " nowC [0:2] $end
$var wire 1 # nextC [0] $end
$var wire 1 $ nextC [1] $end
$var wire 1 % nextC [2] $end
$var wire 1 & sampler $end
$scope module i1 $end
$var wire 1 ' gnd $end
$var wire 1 ( vcc $end
$var wire 1 ) unknown $end
$var tri1 1 * devclrn $end
$var tri1 1 + devpor $end
$var tri1 1 , devoe $end
$var wire 1 - nextC[2]~output_o $end
$var wire 1 . nextC[1]~output_o $end
$var wire 1 / nextC[0]~output_o $end
$var wire 1 0 clk~input_o $end
$var wire 1 1 clk~inputclkctrl_outclk $end
$var wire 1 2 nowC[2]~input_o $end
$var wire 1 3 nextC[2]~0_combout $end
$var wire 1 4 nextC[2]~reg0_q $end
$var wire 1 5 nowC[1]~input_o $end
$var wire 1 6 Add0~0_combout $end
$var wire 1 7 nextC[1]~reg0_q $end
$var wire 1 8 nowC[0]~input_o $end
$var wire 1 9 Add0~1_combout $end
$var wire 1 : nextC[0]~reg0_q $end
$upscope $end
$upscope $end
$enddefinitions $end
#0
$dumpvars
0!
b0 "
0%
0$
0#
x&
0'
1(
x)
1*
1+
1,
0-
0.
0/
00
01
02
13
04
05
06
07
08
09
0:
$end
#5000
1!
10
11
0&
14
1-
1%
#10000
0!
00
01
1&
#15000
1!
10
11
0&
#20000
0!
00
01
1&
#25000
1!
10
11
0&
#30000
0!
00
01
1&
#35000
1!
10
11
0&
#40000
0!
00
01
1&
#45000
1!
10
11
0&
#50000
0!
00
01
1&
#55000
1!
10
11
0&
#60000
0!
00
01
1&
#65000
1!
10
11
0&
#70000
0!
00
01
1&
#75000
1!
10
11
0&
#80000
b1 "
0!
12
00
01
1&
16
03
#85000
1!
10
11
0&
17
04
1.
0-
1$
0%
#90000
0!
00
01
1&
#95000
1!
10
11
0&
#100000
0!
00
01
1&
#105000
1!
10
11
0&
#110000
0!
00
01
1&
#115000
1!
10
11
0&
#120000
0!
00
01
1&
#125000
1!
10
11
0&
#130000
0!
00
01
1&
#135000
1!
10
11
0&
#140000
0!
00
01
1&
#145000
1!
10
11
0&
#150000
0!
00
01
1&
#155000
1!
10
11
0&
#160000
b11 "
b10 "
0!
02
15
00
01
1&
13
#165000
1!
10
11
0&
14
1-
1%
#170000
0!
00
01
1&
#175000
1!
10
11
0&
#180000
0!
00
01
1&
#185000
1!
10
11
0&
#190000
0!
00
01
1&
#195000
1!
10
11
0&
#200000
0!
00
01
1&
#205000
1!
10
11
0&
#210000
0!
00
01
1&
#215000
1!
10
11
0&
#220000
0!
00
01
1&
#225000
1!
10
11
0&
#230000
0!
00
01
1&
#235000
1!
10
11
0&
#240000
b11 "
0!
12
00
01
1&
19
06
03
#245000
1!
10
11
0&
1:
07
04
1/
0.
0-
1#
0$
0%
#250000
0!
00
01
1&
#255000
1!
10
11
0&
#260000
0!
00
01
1&
#265000
1!
10
11
0&
#270000
0!
00
01
1&
#275000
1!
10
11
0&
#280000
0!
00
01
1&
#285000
1!
10
11
0&
#290000
0!
00
01
1&
#295000
1!
10
11
0&
#300000
0!
00
01
1&
#305000
1!
10
11
0&
#310000
0!
00
01
1&
#315000
1!
10
11
0&
#320000
b111 "
b101 "
b100 "
0!
02
05
18
00
01
1&
13
#325000
1!
10
11
0&
14
1-
1%
#330000
0!
00
01
1&
#335000
1!
10
11
0&
#340000
0!
00
01
1&
#345000
1!
10
11
0&
#350000
0!
00
01
1&
#355000
1!
10
11
0&
#360000
0!
00
01
1&
#365000
1!
10
11
0&
#370000
0!
00
01
1&
#375000
1!
10
11
0&
#380000
0!
00
01
1&
#385000
1!
10
11
0&
#390000
0!
00
01
1&
#395000
1!
10
11
0&
#400000
b101 "
0!
12
00
01
1&
16
03
#405000
1!
10
11
0&
17
04
1.
0-
1$
0%
#410000
0!
00
01
1&
#415000
1!
10
11
0&
#420000
0!
00
01
1&
#425000
1!
10
11
0&
#430000
0!
00
01
1&
#435000
1!
10
11
0&
#440000
0!
00
01
1&
#445000
1!
10
11
0&
#450000
0!
00
01
1&
#455000
1!
10
11
0&
#460000
0!
00
01
1&
#465000
1!
10
11
0&
#470000
0!
00
01
1&
#475000
1!
10
11
0&
#480000
b111 "
b110 "
0!
02
15
00
01
1&
13
#485000
1!
10
11
0&
14
1-
1%
#490000
0!
00
01
1&
#495000
1!
10
11
0&
#500000
0!
00
01
1&
#505000
1!
10
11
0&
#510000
0!
00
01
1&
#515000
1!
10
11
0&
#520000
0!
00
01
1&
#525000
1!
10
11
0&
#530000
0!
00
01
1&
#535000
1!
10
11
0&
#540000
0!
00
01
1&
#545000
1!
10
11
0&
#550000
0!
00
01
1&
#555000
1!
10
11
0&
#560000
b111 "
0!
12
00
01
1&
09
06
03
#565000
1!
10
11
0&
0:
07
04
0/
0.
0-
0#
0$
0%
#570000
0!
00
01
1&
#575000
1!
10
11
0&
#580000
0!
00
01
1&
#585000
1!
10
11
0&
#590000
0!
00
01
1&
#595000
1!
10
11
0&
#600000
0!
00
01
1&
#605000
1!
10
11
0&
#610000
0!
00
01
1&
#615000
1!
10
11
0&
#620000
0!
00
01
1&
#625000
1!
10
11
0&
#630000
0!
00
01
1&
#635000
1!
10
11
0&
#640000
b11 "
b1 "
b0 "
0!
02
05
08
00
01
1&
13
#645000
1!
10
11
0&
14
1-
1%
#650000
0!
00
01
1&
#655000
1!
10
11
0&
#660000
0!
00
01
1&
#665000
1!
10
11
0&
#670000
0!
00
01
1&
#675000
1!
10
11
0&
#680000
0!
00
01
1&
#685000
1!
10
11
0&
#690000
0!
00
01
1&
#695000
1!
10
11
0&
#700000
0!
00
01
1&
#705000
1!
10
11
0&
#710000
0!
00
01
1&
#715000
1!
10
11
0&
#720000
b1 "
0!
12
00
01
1&
16
03
#725000
1!
10
11
0&
17
04
1.
0-
1$
0%
#730000
0!
00
01
1&
#735000
1!
10
11
0&
#740000
0!
00
01
1&
#745000
1!
10
11
0&
#750000
0!
00
01
1&
#755000
1!
10
11
0&
#760000
0!
00
01
1&
#765000
1!
10
11
0&
#770000
0!
00
01
1&
#775000
1!
10
11
0&
#780000
0!
00
01
1&
#785000
1!
10
11
0&
#790000
0!
00
01
1&
#795000
1!
10
11
0&
#800000
b11 "
b10 "
0!
02
15
00
01
1&
13
#805000
1!
10
11
0&
14
1-
1%
#810000
0!
00
01
1&
#815000
1!
10
11
0&
#820000
0!
00
01
1&
#825000
1!
10
11
0&
#830000
0!
00
01
1&
#835000
1!
10
11
0&
#840000
0!
00
01
1&
#845000
1!
10
11
0&
#850000
0!
00
01
1&
#855000
1!
10
11
0&
#860000
0!
00
01
1&
#865000
1!
10
11
0&
#870000
0!
00
01
1&
#875000
1!
10
11
0&
#880000
b11 "
0!
12
00
01
1&
19
06
03
#885000
1!
10
11
0&
1:
07
04
1/
0.
0-
1#
0$
0%
#890000
0!
00
01
1&
#895000
1!
10
11
0&
#900000
0!
00
01
1&
#905000
1!
10
11
0&
#910000
0!
00
01
1&
#915000
1!
10
11
0&
#920000
0!
00
01
1&
#925000
1!
10
11
0&
#930000
0!
00
01
1&
#935000
1!
10
11
0&
#940000
0!
00
01
1&
#945000
1!
10
11
0&
#950000
0!
00
01
1&
#955000
1!
10
11
0&
#960000
b111 "
b101 "
b100 "
0!
02
05
18
00
01
1&
13
#965000
1!
10
11
0&
14
1-
1%
#970000
0!
00
01
1&
#975000
1!
10
11
0&
#980000
0!
00
01
1&
#985000
1!
10
11
0&
#990000
0!
00
01
1&
#995000
1!
10
11
0&
