src/final/pointsMemory/simulation/qsim/cardNum.msim.vcd
$comment
	File created using the following command:
		vcd file cardNum.msim.vcd -direction
$end
$date
	Tue Jun 21 00:25:12 2022
$end
$version
	ModelSim Version 10.1d
$end
$timescale
	1ps
$end
$scope module cardNum_vlg_vec_tst $end
$var reg 1 ! clk $end
$var reg 6 " nowC1 [0:5] $end
$var reg 6 # nowC2 [0:5] $end
$var wire 1 $ nextC [0] $end
$var wire 1 % nextC [1] $end
$var wire 1 & nextC [2] $end
$var wire 1 ' nextC [3] $end
$var wire 1 ( nextC [4] $end
$var wire 1 ) nextC [5] $end
$var wire 1 * sampler $end
$scope module i1 $end
$var wire 1 + gnd $end
$var wire 1 , vcc $end
$var wire 1 - unknown $end
$var tri1 1 . devclrn $end
$var tri1 1 / devpor $end
$var tri1 1 0 devoe $end
$var wire 1 1 nextC[5]~output_o $end
$var wire 1 2 nextC[4]~output_o $end
$var wire 1 3 nextC[3]~output_o $end
$var wire 1 4 nextC[2]~output_o $end
$var wire 1 5 nextC[1]~output_o $end
$var wire 1 6 nextC[0]~output_o $end
$var wire 1 7 clk~input_o $end
$var wire 1 8 clk~inputclkctrl_outclk $end
$var wire 1 9 nowC1[5]~input_o $end
$var wire 1 : nowC2[5]~input_o $end
$var wire 1 ; nextC[5]~6_combout $end
$var wire 1 < nextC[5]~reg0_q $end
$var wire 1 = nowC1[4]~input_o $end
$var wire 1 > nowC2[4]~input_o $end
$var wire 1 ? nextC[5]~7 $end
$var wire 1 @ nextC[4]~8_combout $end
$var wire 1 A nextC[4]~reg0_q $end
$var wire 1 B nowC1[3]~input_o $end
$var wire 1 C nowC2[3]~input_o $end
$var wire 1 D nextC[4]~9 $end
$var wire 1 E nextC[3]~10_combout $end
$var wire 1 F nextC[3]~reg0_q $end
$var wire 1 G nowC1[2]~input_o $end
$var wire 1 H nowC2[2]~input_o $end
$var wire 1 I nextC[3]~11 $end
$var wire 1 J nextC[2]~12_combout $end
$var wire 1 K nextC[2]~reg0_q $end
$var wire 1 L nowC2[1]~input_o $end
$var wire 1 M nowC1[1]~input_o $end
$var wire 1 N nextC[2]~13 $end
$var wire 1 O nextC[1]~14_combout $end
$var wire 1 P nextC[1]~reg0_q $end
$var wire 1 Q nowC1[0]~input_o $end
$var wire 1 R nowC2[0]~input_o $end
$var wire 1 S nextC[1]~15 $end
$var wire 1 T nextC[0]~16_combout $end
$var wire 1 U nextC[0]~reg0_q $end
$upscope $end
$upscope $end
$enddefinitions $end
#0
$dumpvars
0!
b0 "
b0 #
0)
0(
0'
0&
0%
0$
x*
0+
1,
x-
1.
1/
10
01
02
03
04
05
06
07
08
09
0:
0;
0<
0=
0>
0?
0@
0A
0B
0C
1D
0E
0F
0G
0H
0I
0J
0K
0L
0M
1N
0O
0P
0Q
0R
0S
0T
0U
$end
#5000
1!
17
18
0*
#10000
b1 "
b100000 #
0!
1R
19
07
08
1*
1T
1;
#15000
1!
17
18
0*
1U
1<
16
11
1$
1)
#20000
b11 "
b110000 #
b10 "
b10000 #
0!
1L
0R
09
1=
07
08
1*
1O
0T
0;
1@
#25000
1!
17
18
0*
0U
1P
1A
0<
06
15
12
01
0$
1%
1(
0)
#30000
b11 "
b110000 #
0!
1R
19
07
08
1*
1T
1;
#35000
1!
17
18
0*
1U
1<
16
11
1$
1)
#40000
b111 "
b111000 #
b101 "
b101000 #
b100 "
b1000 #
0!
1H
0L
0R
09
0=
1B
07
08
1*
1J
0O
0T
0;
0@
1E
#45000
1!
17
18
0*
0U
0P
1K
1F
0A
0<
06
05
14
13
02
01
0$
0%
1&
1'
0(
0)
#50000
b101 "
b101000 #
0!
1R
19
07
08
1*
1T
1;
#55000
1!
17
18
0*
1U
1<
16
11
1$
1)
#60000
b111 "
b111000 #
b110 "
b11000 #
0!
1L
0R
09
1=
07
08
1*
1O
0T
0;
1@
#65000
1!
17
18
0*
0U
1P
1A
0<
06
15
12
01
0$
1%
1(
0)
#70000
b111 "
b111000 #
0!
1R
19
07
08
1*
1T
1;
#75000
1!
17
18
0*
1U
1<
16
11
1$
1)
#80000
b1111 "
b111100 #
b1011 "
b110100 #
b1001 "
b100100 #
b1000 "
b100 #
0!
1C
0H
0L
0R
09
0=
0B
1G
07
08
1*
0O
0T
0;
0@
#85000
1!
17
18
0*
0U
0P
0A
0<
06
05
02
01
0$
0%
0(
0)
#90000
b1001 "
b100100 #
0!
1R
19
07
08
1*
1T
1;
#95000
1!
17
18
0*
1U
1<
16
11
1$
1)
#100000
b1011 "
b110100 #
b1010 "
b10100 #
0!
1L
0R
09
1=
07
08
1*
1O
0T
0;
1@
#105000
1!
17
18
0*
0U
1P
1A
0<
06
15
12
01
0$
1%
1(
0)
#110000
b1011 "
b110100 #
0!
1R
19
07
08
1*
1T
1;
#115000
1!
17
18
0*
1U
1<
16
11
1$
1)
#120000
b1111 "
b111100 #
b1101 "
b101100 #
b1100 "
b1100 #
0!
1H
0L
0R
09
0=
1B
07
08
1*
0N
0J
0O
0T
0;
0@
1I
0E
1O
1J
#125000
1!
17
18
0*
0U
0F
0A
0<
06
03
02
01
0$
0'
0(
0)
#130000
b1101 "
b101100 #
0!
1R
19
07
08
1*
1T
1;
#135000
1!
17
18
0*
1U
1<
16
11
1$
1)
#140000
b1111 "
b111100 #
b1110 "
b11100 #
0!
1L
0R
09
1=
07
08
1*
1S
0O
0T
0;
1@
1T
#145000
1!
17
18
0*
0P
1A
0<
05
12
01
0%
1(
0)
#150000
b1111 "
b111100 #
0!
1R
19
07
08
1*
0T
1;
#155000
1!
17
18
0*
0U
1<
06
11
0$
1)
#160000
b11111 "
b111110 #
b10111 "
b111010 #
b10011 "
b110010 #
b10001 "
b100010 #
b10000 "
b10 #
0!
1>
0C
0H
0L
0R
09
0=
0B
0G
1M
07
08
1*
0I
1N
1T
0;
0J
0S
1O
0T
#165000
1!
17
18
0*
1P
0K
0<
15
04
01
1%
0&
0)
#170000
b10001 "
b100010 #
0!
1R
19
07
08
1*
1T
1;
#175000
1!
17
18
0*
1U
1<
16
11
1$
1)
#180000
b10011 "
b110010 #
b10010 "
b10010 #
0!
1L
0R
09
1=
07
08
1*
1S
0O
0T
0;
0D
0@
1T
1E
#185000
1!
17
18
0*
0P
1F
0A
0<
05
13
02
01
0%
1'
0(
0)
#190000
b10011 "
b110010 #
0!
1R
19
07
08
1*
0T
1;
#195000
1!
17
18
0*
0U
1<
06
11
0$
1)
#200000
b10111 "
b111010 #
b10101 "
b101010 #
b10100 "
b1010 #
0!
1H
0L
0R
09
0=
1B
07
08
1*
1J
0S
1O
1T
0;
1D
1@
1I
0E
0T
0I
1E
0N
0J
1N
1J
1S
0O
0S
1O
1T
0T
#205000
1!
17
18
0*
1P
1K
1A
0<
15
14
12
01
1%
1&
1(
0)
#210000
b10101 "
b101010 #
0!
1R
19
07
08
1*
1T
1;
#215000
1!
17
18
0*
1U
1<
16
11
1$
1)
#220000
b10111 "
b111010 #
b10110 "
b11010 #
0!
1L
0R
09
1=
07
08
1*
1S
0O
0T
0;
0D
0@
1T
1I
0E
0N
0J
1O
#225000
1!
17
18
0*
0K
0F
0A
0<
04
03
02
01
0&
0'
0(
0)
#230000
b10111 "
b111010 #
0!
1R
19
07
08
1*
0T
1;
#235000
1!
17
18
0*
0U
1<
06
11
0$
1)
#240000
b11111 "
b111110 #
b11011 "
b110110 #
b11001 "
b100110 #
b11000 "
b110 #
0!
1C
0H
0L
0R
09
0=
0B
1G
07
08
1*
0O
1T
0;
1D
1@
0I
1E
1N
1J
0S
1O
0T
#245000
1!
17
18
0*
1K
1F
1A
0<
14
13
12
01
1&
1'
1(
0)
#250000
b11001 "
b100110 #
0!
1R
19
07
08
1*
1T
1;
#255000
1!
17
18
0*
1U
1<
16
11
1$
1)
#260000
b11011 "
b110110 #
b11010 "
b10110 #
0!
1L
0R
09
1=
07
08
1*
1S
0O
0T
0;
0D
0@
1T
1I
0E
0N
0J
1O
#265000
1!
17
18
0*
0K
0F
0A
0<
04
03
02
01
0&
0'
0(
0)
#270000
b11011 "
b110110 #
0!
1R
19
07
08
1*
0T
1;
#275000
1!
17
18
0*
0U
1<
06
11
0$
1)
#280000
b11111 "
b111110 #
b11101 "
b101110 #
b11100 "
b1110 #
0!
1H
0L
0R
09
0=
1B
07
08
1*
1J
0O
1T
0;
1D
1@
1E
0E
#285000
1!
17
18
0*
1U
0P
1K
1A
0<
16
05
14
12
01
1$
0%
1&
1(
0)
#290000
b11101 "
b101110 #
0!
1R
19
07
08
1*
0T
1;
#295000
1!
17
18
0*
0U
1<
06
11
0$
1)
#300000
b11111 "
b111110 #
b11110 "
b11110 #
0!
1L
0R
09
1=
07
08
1*
1O
1T
0;
0D
0@
1E
#305000
1!
17
18
0*
1U
1P
1F
0A
0<
16
15
13
02
01
1$
1%
1'
0(
0)
#310000
b11111 "
b111110 #
0!
1R
19
07
08
1*
0T
1;
#315000
1!
17
18
0*
0U
1<
06
11
0$
1)
#320000
b111111 "
b111111 #
b101111 "
b111101 #
b100111 "
b111001 #
b100011 "
b110001 #
b100001 "
b100001 #
b100000 "
b1 #
0!
1:
0>
0C
0H
0L
0R
09
0=
0B
0G
0M
1Q
07
08
1*
1D
0I
1N
0S
0E
0J
0O
1T
#325000
1!
17
18
0*
1U
0P
0K
0F
16
05
04
03
1$
0%
0&
0'
#330000
b100001 "
b100001 #
0!
1R
19
07
08
1*
0T
1?
0;
1@
#335000
1!
17
18
0*
0U
1A
0<
06
12
01
0$
1(
0)
#340000
b100011 "
b110001 #
b100010 "
b10001 #
0!
1L
0R
09
1=
07
08
1*
1O
1T
0?
1;
0D
0@
1D
1@
1E
0E
#345000
1!
17
18
0*
1U
1P
1<
16
15
11
1$
1%
1)
#350000
b100011 "
b110001 #
0!
1R
19
07
08
1*
0T
1?
0;
0D
0@
1E
#355000
1!
17
18
0*
0U
1F
0A
0<
06
13
02
01
0$
1'
0(
0)
#360000
b100111 "
b111001 #
b100101 "
b101001 #
b100100 "
b1001 #
0!
1H
0L
0R
09
0=
1B
07
08
1*
1J
0O
1T
0?
1;
1D
1@
1I
0E
0@
0I
1E
0N
0J
1N
1J
1O
0O
#365000
1!
17
18
0*
1U
0P
1K
1<
16
05
14
11
1$
0%
1&
1)
#370000
b100101 "
b101001 #
0!
1R
19
07
08
1*
0T
1?
0;
1@
#375000
1!
17
18
0*
0U
1A
0<
06
12
01
0$
1(
0)
#380000
b100111 "
b111001 #
b100110 "
b11001 #
0!
1L
0R
09
1=
07
08
1*
1O
1T
0?
1;
0D
0@
1D
1@
1I
0E
0I
1E
0N
0J
1N
1J
1S
0O
0S
1O
0T
1T
#385000
1!
17
18
0*
1U
1P
1<
16
15
11
1$
1%
1)
#390000
b100111 "
b111001 #
0!
1R
19
07
08
1*
0T
1?
0;
0D
0@
1I
0E
0N
0J
1S
0O
1T
#395000
1!
17
18
0*
0P
0K
0F
0A
0<
05
04
03
02
01
0%
0&
0'
0(
0)
#400000
b101111 "
b111101 #
b101011 "
b110101 #
b101001 "
b100101 #
b101000 "
b101 #
0!
1C
0H
0L
0R
09
0=
0B
1G
07
08
1*
0S
1O
0T
0?
1;
1D
1@
1T
0@
0I
1E
1N
1J
0O
#405000
1!
17
18
0*
1K
1F
1<
14
13
11
1&
1'
1)
#410000
b101001 "
b100101 #
0!
1R
19
07
08
1*
0T
1?
0;
1@
#415000
1!
17
18
0*
0U
1A
0<
06
12
01
0$
1(
0)
#420000
b101011 "
b110101 #
b101010 "
b10101 #
0!
1L
0R
09
1=
07
08
1*
1O
1T
0?
1;
0D
0@
1D
1@
1I
0E
0I
1E
0N
0J
1N
1J
1S
0O
0S
1O
0T
1T
#425000
1!
17
18
0*
1U
1P
1<
16
15
11
1$
1%
1)
#430000
b101011 "
b110101 #
0!
1R
19
07
08
1*
0T
1?
0;
0D
0@
1I
0E
0N
0J
1S
0O
1T
#435000
1!
17
18
0*
0P
0K
0F
0A
0<
05
04
03
02
01
0%
0&
0'
0(
0)
#440000
b101111 "
b111101 #
b101101 "
b101101 #
b101100 "
b1101 #
0!
1H
0L
0R
09
0=
1B
07
08
1*
1J
0S
1O
0T
0?
1;
1D
1@
1E
1T
0@
0E
#445000
1!
17
18
0*
1P
1K
1<
15
14
11
1%
1&
1)
#450000
b101101 "
b101101 #
0!
1R
19
07
08
1*
0T
1?
0;
1@
#455000
1!
17
18
0*
0U
1A
0<
06
12
01
0$
1(
0)
#460000
b101111 "
b111101 #
b101110 "
b11101 #
0!
1L
0R
09
1=
07
08
1*
1S
0O
1T
0?
1;
0D
0@
0T
1D
1@
1E
0E
#465000
1!
17
18
0*
0P
1<
05
11
0%
1)
#470000
b101111 "
b111101 #
0!
1R
19
07
08
1*
1T
1?
0;
0D
0@
1E
#475000
1!
17
18
0*
1U
1F
0A
0<
16
13
02
01
1$
1'
0(
0)
#480000
b111111 "
b111111 #
b110111 "
b111011 #
b110011 "
b110011 #
b110001 "
b100011 #
b110000 "
b11 #
0!
1>
0C
0H
0L
0R
09
0=
0B
0G
1M
07
08
1*
0I
1N
0T
0?
1;
0J
0S
1O
1D
1@
1T
0E
#485000
1!
17
18
0*
1P
0K
0F
1A
1<
15
04
03
12
11
1%
0&
0'
1(
1)
#490000
b110001 "
b100011 #
0!
1R
19
07
08
1*
0T
1?
0;
0D
0@
1E
#495000
1!
17
18
0*
0U
1F
0A
0<
06
13
02
01
0$
1'
0(
0)
#500000
b110011 "
b110011 #
b110010 "
b10011 #
0!
1L
0R
09
1=
07
08
1*
1S
0O
1T
0?
1;
1@
0T
0@
#505000
1!
17
18
0*
0P
1<
05
11
0%
1)
#510000
b110011 "
b110011 #
0!
1R
19
07
08
1*
1T
1?
0;
1@
#515000
1!
17
18
0*
1U
1A
0<
16
12
01
1$
1(
0)
#520000
b110111 "
b111011 #
b110101 "
b101011 #
b110100 "
b1011 #
0!
1H
0L
0R
09
0=
1B
07
08
1*
1J
0S
1O
0T
0?
1;
0@
1I
0E
1T
1D
1@
0N
0J
0I
1E
1S
0O
1N
1J
0T
0S
1O
1T
#525000
1!
17
18
0*
1P
1K
1<
15
14
11
1%
1&
1)
#530000
b110101 "
b101011 #
0!
1R
19
07
08
1*
0T
1?
0;
0D
0@
1I
0E
0N
0J
1S
0O
1T
#535000
1!
17
18
0*
0P
0K
0F
0A
0<
05
04
03
02
01
0%
0&
0'
0(
0)
#540000
b110111 "
b111011 #
b110110 "
b11011 #
0!
1L
0R
09
1=
07
08
1*
1O
0T
0?
1;
1@
0@
#545000
1!
17
18
0*
0U
1P
1<
06
15
11
0$
1%
1)
#550000
b110111 "
b111011 #
0!
1R
19
07
08
1*
1T
1?
0;
1@
#555000
1!
17
18
0*
1U
1A
0<
16
12
01
1$
1(
0)
#560000
b111111 "
b111111 #
b111011 "
b110111 #
b111001 "
b100111 #
b111000 "
b111 #
0!
1C
0H
0L
0R
09
0=
0B
1G
07
08
1*
0O
0T
0?
1;
0@
1D
1@
0I
1E
1N
1J
0S
1O
1T
#565000
1!
17
18
0*
1K
1F
1<
14
13
11
1&
1'
1)
#570000
b111001 "
b100111 #
0!
1R
19
07
08
1*
0T
1?
0;
0D
0@
1I
0E
0N
0J
1S
0O
1T
#575000
1!
17
18
0*
0P
0K
0F
0A
0<
05
04
03
02
01
0%
0&
0'
0(
0)
#580000
b111011 "
b110111 #
b111010 "
b10111 #
0!
1L
0R
09
1=
07
08
1*
1O
0T
0?
1;
1@
0@
#585000
1!
17
18
0*
0U
1P
1<
06
15
11
0$
1%
1)
#590000
b111011 "
b110111 #
0!
1R
19
07
08
1*
1T
1?
0;
1@
#595000
1!
17
18
0*
1U
1A
0<
16
12
01
1$
1(
0)
#600000
b111111 "
b111111 #
b111101 "
b101111 #
b111100 "
b1111 #
0!
1H
0L
0R
09
0=
1B
07
08
1*
1J
0O
0T
0?
1;
0@
1E
1D
1@
0E
#605000
1!
17
18
0*
0U
0P
1K
1<
06
05
14
11
0$
0%
1&
1)
#610000
b111101 "
b101111 #
0!
1R
19
07
08
1*
1T
1?
0;
0D
0@
1E
#615000
1!
17
18
0*
1U
1F
0A
0<
16
13
02
01
1$
1'
0(
0)
#620000
b111111 "
b111111 #
b111110 "
b11111 #
0!
1L
0R
09
1=
07
08
1*
1O
0T
0?
1;
1@
0@
#625000
1!
17
18
0*
0U
1P
1<
06
15
11
0$
1%
1)
#630000
b111111 "
b111111 #
0!
1R
19
07
08
1*
1T
1?
0;
1@
#635000
1!
17
18
0*
1U
1A
0<
16
12
01
1$
1(
0)
#640000
b11111 "
b111110 #
b1111 "
b111100 #
b111 "
b111000 #
b11 "
b110000 #
b1 "
b100000 #
b0 "
b0 #
0!
0:
0>
0C
0H
0L
0R
09
0=
0B
0G
0M
0Q
07
08
1*
0?
1D
0I
1N
0S
0@
0E
0J
0O
0T
#645000
1!
17
18
0*
0U
0P
0K
0F
0A
06
05
04
03
02
0$
0%
0&
0'
0(
#650000
b1 "
b100000 #
0!
1R
19
07
08
1*
1T
1;
#655000
1!
17
18
0*
1U
1<
16
11
1$
1)
#660000
b11 "
b110000 #
b10 "
b10000 #
0!
1L
0R
09
1=
07
08
1*
1O
0T
0;
1@
#665000
1!
17
18
0*
0U
1P
1A
0<
06
15
12
01
0$
1%
1(
0)
#670000
b11 "
b110000 #
0!
1R
19
07
08
1*
1T
1;
#675000
1!
17
18
0*
1U
1<
16
11
1$
1)
#680000
b111 "
b111000 #
b101 "
b101000 #
b100 "
b1000 #
0!
1H
0L
0R
09
0=
1B
07
08
1*
1J
0O
0T
0;
0@
1E
#685000
1!
17
18
0*
0U
0P
1K
1F
0A
0<
06
05
14
13
02
01
0$
0%
1&
1'
0(
0)
#690000
b101 "
b101000 #
0!
1R
19
07
08
1*
1T
1;
#695000
1!
17
18
0*
1U
1<
16
11
1$
1)
#700000
b111 "
b111000 #
b110 "
b11000 #
0!
1L
0R
09
1=
07
08
1*
1O
0T
0;
1@
#705000
1!
17
18
0*
0U
1P
1A
0<
06
15
12
01
0$
1%
1(
0)
#710000
b111 "
b111000 #
0!
1R
19
07
08
1*
1T
1;
#715000
1!
17
18
0*
1U
1<
16
11
1$
1)
#720000
b1111 "
b111100 #
b1011 "
b110100 #
b1001 "
b100100 #
b1000 "
b100 #
0!
1C
0H
0L
0R
09
0=
0B
1G
07
08
1*
0O
0T
0;
0@
#725000
1!
17
18
0*
0U
0P
0A
0<
06
05
02
01
0$
0%
0(
0)
#730000
b1001 "
b100100 #
0!
1R
19
07
08
1*
1T
1;
#735000
1!
17
18
0*
1U
1<
16
11
1$
1)
#740000
b1011 "
b110100 #
b1010 "
b10100 #
0!
1L
0R
09
1=
07
08
1*
1O
0T
0;
1@
#745000
1!
17
18
0*
0U
1P
1A
0<
06
15
12
01
0$
1%
1(
0)
#750000
b1011 "
b110100 #
0!
1R
19
07
08
1*
1T
1;
#755000
1!
17
18
0*
1U
1<
16
11
1$
1)
#760000
b1111 "
b111100 #
b1101 "
b101100 #
b1100 "
b1100 #
0!
1H
0L
0R
09
0=
1B
07
08
1*
0N
0J
0O
0T
0;
0@
1I
0E
1O
1J
#765000
1!
17
18
0*
0U
0F
0A
0<
06
03
02
01
0$
0'
0(
0)
#770000
b1101 "
b101100 #
0!
1R
19
07
08
1*
1T
1;
#775000
1!
17
18
0*
1U
1<
16
11
1$
1)
#780000
b1111 "
b111100 #
b1110 "
b11100 #
0!
1L
0R
09
1=
07
08
1*
1S
0O
0T
0;
1@
1T
#785000
1!
17
18
0*
0P
1A
0<
05
12
01
0%
1(
0)
#790000
b1111 "
b111100 #
0!
1R
19
07
08
1*
0T
1;
#795000
1!
17
18
0*
0U
1<
06
11
0$
1)
#800000
b11111 "
b111110 #
b10111 "
b111010 #
b10011 "
b110010 #
b10001 "
b100010 #
b10000 "
b10 #
0!
1>
0C
0H
0L
0R
09
0=
0B
0G
1M
07
08
1*
0I
1N
1T
0;
0J
0S
1O
0T
#805000
1!
17
18
0*
1P
0K
0<
15
04
01
1%
0&
0)
#810000
b10001 "
b100010 #
0!
1R
19
07
08
1*
1T
1;
#815000
1!
17
18
0*
1U
1<
16
11
1$
1)
#820000
b10011 "
b110010 #
b10010 "
b10010 #
0!
1L
0R
09
1=
07
08
1*
1S
0O
0T
0;
0D
0@
1T
1E
#825000
1!
17
18
0*
0P
1F
0A
0<
05
13
02
01
0%
1'
0(
0)
#830000
b10011 "
b110010 #
0!
1R
19
07
08
1*
0T
1;
#835000
1!
17
18
0*
0U
1<
06
11
0$
1)
#840000
b10111 "
b111010 #
b10101 "
b101010 #
b10100 "
b1010 #
0!
1H
0L
0R
09
0=
1B
07
08
1*
1J
0S
1O
1T
0;
1D
1@
1I
0E
0T
0I
1E
0N
0J
1N
1J
1S
0O
0S
1O
1T
0T
#845000
1!
17
18
0*
1P
1K
1A
0<
15
14
12
01
1%
1&
1(
0)
#850000
b10101 "
b101010 #
0!
1R
19
07
08
1*
1T
1;
#855000
1!
17
18
0*
1U
1<
16
11
1$
1)
#860000
b10111 "
b111010 #
b10110 "
b11010 #
0!
1L
0R
09
1=
07
08
1*
1S
0O
0T
0;
0D
0@
1T
1I
0E
0N
0J
1O
#865000
1!
17
18
0*
0K
0F
0A
0<
04
03
02
01
0&
0'
0(
0)
#870000
b10111 "
b111010 #
0!
1R
19
07
08
1*
0T
1;
#875000
1!
17
18
0*
0U
1<
06
11
0$
1)
#880000
b11111 "
b111110 #
b11011 "
b110110 #
b11001 "
b100110 #
b11000 "
b110 #
0!
1C
0H
0L
0R
09
0=
0B
1G
07
08
1*
0O
1T
0;
1D
1@
0I
1E
1N
1J
0S
1O
0T
#885000
1!
17
18
0*
1K
1F
1A
0<
14
13
12
01
1&
1'
1(
0)
#890000
b11001 "
b100110 #
0!
1R
19
07
08
1*
1T
1;
#895000
1!
17
18
0*
1U
1<
16
11
1$
1)
#900000
b11011 "
b110110 #
b11010 "
b10110 #
0!
1L
0R
09
1=
07
08
1*
1S
0O
0T
0;
0D
0@
1T
1I
0E
0N
0J
1O
#905000
1!
17
18
0*
0K
0F
0A
0<
04
03
02
01
0&
0'
0(
0)
#910000
b11011 "
b110110 #
0!
1R
19
07
08
1*
0T
1;
#915000
1!
17
18
0*
0U
1<
06
11
0$
1)
#920000
b11111 "
b111110 #
b11101 "
b101110 #
b11100 "
b1110 #
0!
1H
0L
0R
09
0=
1B
07
08
1*
1J
0O
1T
0;
1D
1@
1E
0E
#925000
1!
17
18
0*
1U
0P
1K
1A
0<
16
05
14
12
01
1$
0%
1&
1(
0)
#930000
b11101 "
b101110 #
0!
1R
19
07
08
1*
0T
1;
#935000
1!
17
18
0*
0U
1<
06
11
0$
1)
#940000
b11111 "
b111110 #
b11110 "
b11110 #
0!
1L
0R
09
1=
07
08
1*
1O
1T
0;
0D
0@
1E
#945000
1!
17
18
0*
1U
1P
1F
0A
0<
16
15
13
02
01
1$
1%
1'
0(
0)
#950000
b11111 "
b111110 #
0!
1R
19
07
08
1*
0T
1;
#955000
1!
17
18
0*
0U
1<
06
11
0$
1)
#960000
b111111 "
b111111 #
b101111 "
b111101 #
b100111 "
b111001 #
b100011 "
b110001 #
b100001 "
b100001 #
b100000 "
b1 #
0!
1:
0>
0C
0H
0L
0R
09
0=
0B
0G
0M
1Q
07
08
1*
1D
0I
1N
0S
0E
0J
0O
1T
#965000
1!
17
18
0*
1U
0P
0K
0F
16
05
04
03
1$
0%
0&
0'
#970000
b100001 "
b100001 #
0!
1R
19
07
08
1*
0T
1?
0;
1@
#975000
1!
17
18
0*
0U
1A
0<
06
12
01
0$
1(
0)
#980000
b100011 "
b110001 #
b100010 "
b10001 #
0!
1L
0R
09
1=
07
08
1*
1O
1T
0?
1;
0D
0@
1D
1@
1E
0E
#985000
1!
17
18
0*
1U
1P
1<
16
15
11
1$
1%
1)
#990000
b100011 "
b110001 #
0!
1R
19
07
08
1*
0T
1?
0;
0D
0@
1E
#995000
1!
17
18
0*
0U
1F
0A
0<
06
13
02
01
0$
1'
0(
0)
