src/final/sevenStop _3/simulation/qsim/SevenStop.msim.vcd
$comment
	File created using the following command:
		vcd file SevenStop.msim.vcd -direction
$end
$date
	Wed Jun 15 10:03:47 2022
$end
$version
	ModelSim Version 10.1d
$end
$timescale
	1ps
$end
$scope module SevenStop_vlg_vec_tst $end
$var reg 1 ! clk $end
$var reg 7 " inputer [0:6] $end
$var reg 1 # x $end
$var wire 1 $ outputer [0] $end
$var wire 1 % outputer [1] $end
$var wire 1 & outputer [2] $end
$var wire 1 ' outputer [3] $end
$var wire 1 ( outputer [4] $end
$var wire 1 ) outputer [5] $end
$var wire 1 * outputer [6] $end
$var wire 1 + sampler $end
$scope module i1 $end
$var wire 1 , gnd $end
$var wire 1 - vcc $end
$var wire 1 . unknown $end
$var tri1 1 / devclrn $end
$var tri1 1 0 devpor $end
$var tri1 1 1 devoe $end
$var wire 1 2 outputer[6]~output_o $end
$var wire 1 3 outputer[5]~output_o $end
$var wire 1 4 outputer[4]~output_o $end
$var wire 1 5 outputer[3]~output_o $end
$var wire 1 6 outputer[2]~output_o $end
$var wire 1 7 outputer[1]~output_o $end
$var wire 1 8 outputer[0]~output_o $end
$var wire 1 9 clk~input_o $end
$var wire 1 : clk~inputclkctrl_outclk $end
$var wire 1 ; inputer[4]~input_o $end
$var wire 1 < inputer[6]~input_o $end
$var wire 1 = inputer[1]~input_o $end
$var wire 1 > inputer[0]~input_o $end
$var wire 1 ? Mux7~0_combout $end
$var wire 1 @ inputer[5]~input_o $end
$var wire 1 A inputer[3]~input_o $end
$var wire 1 B inputer[2]~input_o $end
$var wire 1 C x~input_o $end
$var wire 1 D outputer~2_combout $end
$var wire 1 E outputer~3_combout $end
$var wire 1 F outputer[6]~reg0_q $end
$var wire 1 G outputer~4_combout $end
$var wire 1 H outputer~5_combout $end
$var wire 1 I outputer~6_combout $end
$var wire 1 J outputer[5]~reg0_q $end
$var wire 1 K Mux4~0_combout $end
$var wire 1 L Mux7~1_combout $end
$var wire 1 M Mux6~0_combout $end
$var wire 1 N outputer~7_combout $end
$var wire 1 O outputer~8_combout $end
$var wire 1 P outputer~9_combout $end
$var wire 1 Q outputer[4]~reg0_q $end
$var wire 1 R outputer~10_combout $end
$var wire 1 S Mux8~0_combout $end
$var wire 1 T Mux3~1_combout $end
$var wire 1 U Mux3~0_combout $end
$var wire 1 V outputer~11_combout $end
$var wire 1 W outputer~12_combout $end
$var wire 1 X outputer[3]~reg0_q $end
$var wire 1 Y Mux7~2_combout $end
$var wire 1 Z Mux7~5_combout $end
$var wire 1 [ Mux7~6_combout $end
$var wire 1 \ Mux7~3_combout $end
$var wire 1 ] Mux7~4_combout $end
$var wire 1 ^ Mux7~7_combout $end
$var wire 1 _ outputer[2]~reg0_q $end
$var wire 1 ` outputer[1]~reg0_q $end
$var wire 1 a Mux0~0_combout $end
$var wire 1 b outputer~13_combout $end
$var wire 1 c outputer~14_combout $end
$var wire 1 d outputer[0]~reg0_q $end
$upscope $end
$upscope $end
$enddefinitions $end
#0
$dumpvars
0!
b0 "
0#
0*
0)
0(
0'
0&
0%
0$
x+
0,
1-
x.
1/
10
11
02
03
04
05
06
07
08
09
0:
0;
0<
0=
0>
0?
0@
0A
0B
0C
1D
1E
0F
0G
0H
1I
0J
0K
0L
0M
1N
0O
1P
0Q
0R
0S
0T
0U
1V
0W
0X
0Y
0Z
1[
0\
0]
0^
0_
0`
0a
1b
1c
0d
$end
#2500
b1 "
1<
0+
1S
#5000
b11 "
b10 "
0<
1@
1+
0S
0D
#7500
b11 "
1<
0+
1S
1M
#10000
b111 "
b101 "
b100 "
0<
0@
1;
1+
0M
1D
#12500
b101 "
1<
0+
1a
1Z
#15000
b111 "
b110 "
0<
1@
1+
0a
0Z
1K
0D
#17500
b111 "
1<
0+
1a
1M
1G
#20000
b1111 "
b1011 "
b1001 "
b1000 "
0<
0@
0;
1A
1+
0a
0M
0G
0K
1D
#22500
b1001 "
1<
0+
#25000
b1011 "
b1010 "
0<
1@
1+
#27500
b1011 "
1<
0+
#30000
b1111 "
b1101 "
b1100 "
0<
0@
1;
1+
1H
#32500
b1101 "
1<
0+
1a
1Z
1U
#35000
b1111 "
b1110 "
0<
1@
1+
0a
0Z
0U
0b
1K
1b
#37500
b1111 "
1<
0+
1a
1U
1G
0b
#40000
b11111 "
b10111 "
b10011 "
b10001 "
b10000 "
0<
0@
0;
0A
1B
1+
0a
0U
0S
1b
1T
0K
0H
0I
1I
#42500
b10001 "
1<
0+
1S
0G
#45000
b10011 "
b10010 "
0<
1@
1+
0S
0T
#47500
b10011 "
1<
0+
1S
#50000
b10111 "
b10101 "
b10100 "
0<
0@
1;
1+
1T
1K
#52500
b10101 "
1<
0+
1Z
#55000
b10111 "
b10110 "
0<
1@
1+
0Z
0T
0K
#57500
b10111 "
1<
0+
#60000
b11111 "
b11011 "
b11001 "
b11000 "
0<
0@
0;
1A
1+
1G
1T
#62500
b11001 "
1<
0+
1M
0G
#65000
b11011 "
b11010 "
0<
1@
1+
0M
0T
#67500
b11011 "
1<
0+
#70000
b11111 "
b11101 "
b11100 "
0<
0@
1;
1+
1T
1K
1H
#72500
b11101 "
1<
0+
1Z
1U
1M
0[
#75000
b11111 "
b11110 "
0<
1@
1+
0Z
0U
0M
0T
0K
1[
#77500
b11111 "
1<
0+
1U
#80000
b111111 "
b101111 "
b100111 "
b100011 "
b100001 "
b100000 "
0<
0@
0;
0A
0B
1=
1+
0U
0S
#82500
b100001 "
1<
0+
1S
#85000
b100011 "
b100010 "
0<
1@
1+
0S
0D
#87500
b100011 "
1<
0+
1S
1M
#90000
b100111 "
b100101 "
b100100 "
0<
0@
1;
1+
0M
1D
0H
#92500
b100101 "
1<
0+
1a
1Z
#95000
b100111 "
b100110 "
0<
1@
1+
0a
0Z
1K
0D
#97500
b100111 "
1<
0+
1a
1M
1G
#100000
b101111 "
b101011 "
b101001 "
b101000 "
0<
0@
0;
1A
1+
0a
0M
0G
0K
1D
#102500
b101001 "
1<
0+
#105000
b101011 "
b101010 "
0<
1@
1+
#107500
b101011 "
1<
0+
#110000
b101111 "
b101101 "
b101100 "
0<
0@
1;
1+
#112500
b101101 "
1<
0+
1a
1Z
#115000
b101111 "
b101110 "
0<
1@
1+
0a
0Z
1K
#117500
b101111 "
1<
0+
1a
1G
#120000
b111111 "
b110111 "
b110011 "
b110001 "
b110000 "
0<
0@
0;
0A
1B
1+
0a
0S
1\
1T
1R
0K
1H
1W
1]
0I
1^
#122500
b110001 "
1<
0+
0]
1S
0G
0^
0W
1I
#125000
b110011 "
b110010 "
0<
1@
1+
1]
0S
0\
0T
0R
1^
0]
0^
#127500
b110011 "
1<
0+
1S
#130000
b110111 "
b110101 "
b110100 "
0<
0@
1;
1+
1\
1T
1R
1K
0H
#132500
b110101 "
1<
0+
1Z
#135000
b110111 "
b110110 "
0<
1@
1+
0Z
0\
0T
0R
0K
#137500
b110111 "
1<
0+
#140000
b111111 "
b111011 "
b111001 "
b111000 "
0<
0@
0;
1A
1+
1G
1T
1R
#142500
b111001 "
1<
0+
1M
0G
#145000
b111011 "
b111010 "
0<
1@
1+
0M
0T
0R
#147500
b111011 "
1<
0+
#150000
b111111 "
b111101 "
b111100 "
0<
0@
1;
1+
1T
1R
1K
#152500
b111101 "
1<
0+
1Z
1M
#155000
b111111 "
b111110 "
0<
1@
1+
0Z
0M
0T
0R
0K
#157500
b111111 "
1<
0+
#160000
1#
b11111 "
b1111 "
b111 "
b11 "
b1 "
b0 "
1C
0<
0@
0;
0A
0B
0=
1+
1^
0V
0N
0S
1W
0P
#162500
b1 "
1<
0+
1S
#165000
b11 "
b10 "
0<
1@
1+
0S
#167500
b11 "
1<
0+
1S
1M
#170000
b111 "
b101 "
b100 "
0<
0@
1;
1+
0M
#172500
b101 "
1<
0+
1a
1Z
#175000
b111 "
b110 "
0<
1@
1+
0a
0Z
1K
#177500
b111 "
1<
0+
1a
1M
1G
#180000
b1111 "
b1011 "
b1001 "
b1000 "
0<
0@
0;
1A
1+
0a
0M
0G
0K
#182500
b1001 "
1<
0+
1O
#185000
b1011 "
b1010 "
0<
1@
1+
0O
#187500
b1011 "
1<
0+
1O
#190000
b1111 "
b1101 "
b1100 "
0<
0@
1;
1+
0O
1H
#192500
b1101 "
1<
0+
1a
1Z
1U
1O
#195000
b1111 "
b1110 "
0<
1@
1+
0a
0Z
0U
0O
0b
1K
1b
0c
1c
#197500
b1111 "
1<
0+
1a
1U
1O
1G
0b
1P
0I
0c
#200000
b11111 "
b10111 "
b10011 "
b10001 "
b10000 "
0<
0@
0;
0A
1B
1+
0a
0U
0S
0O
1b
1T
0K
0H
1I
0P
1c
#202500
b10001 "
1<
0+
1S
0G
#205000
b10011 "
b10010 "
0<
1@
1+
0S
0T
#207500
b10011 "
1<
0+
1S
#210000
b10111 "
b10101 "
b10100 "
0<
0@
1;
1+
1T
1K
#212500
b10101 "
1<
0+
1Z
#215000
b10111 "
b10110 "
0<
1@
1+
0Z
0T
0K
#217500
b10111 "
1<
0+
#220000
b11111 "
b11011 "
b11001 "
b11000 "
0<
0@
0;
1A
1+
1G
1T
#222500
b11001 "
1<
0+
1O
1M
0G
#225000
b11011 "
b11010 "
0<
1@
1+
0O
0M
0T
#227500
b11011 "
1<
0+
1O
#230000
b11111 "
b11101 "
b11100 "
0<
0@
1;
1+
0O
1T
1K
1H
#232500
b11101 "
1<
0+
1Z
1U
1O
1M
0[
1V
1P
0^
0W
#235000
b11111 "
b11110 "
0<
1@
1+
0Z
0U
0O
0M
0T
0K
1[
0V
0P
1^
1W
#237500
b11111 "
1<
0+
1U
1O
#240000
b111111 "
b101111 "
b100111 "
b100011 "
b100001 "
b100000 "
0<
0@
0;
0A
0B
1=
1+
0U
0S
0O
#242500
b100001 "
1<
0+
1S
#245000
b100011 "
b100010 "
0<
1@
1+
0S
#247500
b100011 "
1<
0+
1S
1M
#250000
b100111 "
b100101 "
b100100 "
0<
0@
1;
1+
0M
0H
#252500
b100101 "
1<
0+
1a
1Z
#255000
b100111 "
b100110 "
0<
1@
1+
0a
0Z
1K
#257500
b100111 "
1<
0+
1a
1M
1G
#260000
b101111 "
b101011 "
b101001 "
b101000 "
0<
0@
0;
1A
1+
0a
0M
0G
0K
#262500
b101001 "
1<
0+
#265000
b101011 "
b101010 "
0<
1@
1+
#267500
b101011 "
1<
0+
#270000
b101111 "
b101101 "
b101100 "
0<
0@
1;
1+
#272500
b101101 "
1<
0+
1a
1Z
#275000
b101111 "
b101110 "
0<
1@
1+
0a
0Z
1K
#277500
b101111 "
1<
0+
1a
1G
#280000
b111111 "
b110111 "
b110011 "
b110001 "
b110000 "
0<
0@
0;
0A
1B
1+
0a
0S
1\
1T
0K
1H
1]
#282500
b110001 "
1<
0+
0]
1S
0G
#285000
b110011 "
b110010 "
0<
1@
1+
1]
0S
0\
0T
0]
#287500
b110011 "
1<
0+
1S
#290000
b110111 "
b110101 "
b110100 "
0<
0@
1;
1+
1\
1T
1K
0H
#292500
b110101 "
1<
0+
1Z
#295000
b110111 "
b110110 "
0<
1@
1+
0Z
0\
0T
0K
#297500
b110111 "
1<
0+
#300000
b111111 "
b111011 "
b111001 "
b111000 "
0<
0@
0;
1A
1+
1G
1T
#302500
b111001 "
1<
0+
1M
0G
#305000
b111011 "
b111010 "
0<
1@
1+
0M
0T
#307500
b111011 "
1<
0+
#310000
b111111 "
b111101 "
b111100 "
0<
0@
1;
1+
1T
1K
#312500
b111101 "
1<
0+
1Z
1M
#315000
b111111 "
b111110 "
0<
1@
1+
0Z
0M
0T
0K
#317500
b111111 "
1<
0+
#320000
1!
b1111111 "
0#
b1011111 "
b1001111 "
b1000111 "
b1000011 "
b1000001 "
b1000000 "
19
0<
0@
0;
0A
0B
0=
1>
0C
1:
1+
0^
1V
1N
0W
1P
1d
1_
1X
1J
1F
18
16
15
13
12
1$
1&
1'
1)
1*
#322500
b1000001 "
1<
0+
#325000
b1000011 "
b1000010 "
0<
1@
1+
0D
#327500
b1000011 "
1<
0+
1Z
1M
#330000
b1000111 "
b1000101 "
b1000100 "
0<
0@
1;
1+
0Z
0M
1D
#332500
b1000101 "
1<
0+
#335000
b1000111 "
b1000110 "
0<
1@
1+
0D
#337500
b1000111 "
1<
0+
1M
1G
#340000
b1001111 "
b1001011 "
b1001001 "
b1001000 "
0<
0@
0;
1A
1+
0M
0G
1D
#342500
b1001001 "
1<
0+
#345000
b1001011 "
b1001010 "
0<
1@
1+
#347500
b1001011 "
1<
0+
1Z
#350000
b1001111 "
b1001101 "
b1001100 "
0<
0@
1;
1+
0Z
#352500
b1001101 "
1<
0+
1U
0S
#355000
b1001111 "
b1001110 "
0<
1@
1+
0U
1S
#357500
b1001111 "
1<
0+
1U
0S
1G
#360000
b1011111 "
b1010111 "
b1010011 "
b1010001 "
b1010000 "
0<
0@
0;
0A
1B
1+
0U
1S
#362500
b1010001 "
1<
0+
1a
0G
#365000
b1010011 "
b1010010 "
0<
1@
1+
0a
1K
#367500
b1010011 "
1<
0+
1a
1Z
#370000
b1010111 "
b1010101 "
b1010100 "
0<
0@
1;
1+
0a
0Z
0K
#372500
b1010101 "
1<
0+
#375000
b1010111 "
b1010110 "
0<
1@
1+
#377500
b1010111 "
1<
0+
#380000
b1011111 "
b1011011 "
b1011001 "
b1011000 "
0<
0@
0;
1A
1+
1G
#382500
b1011001 "
1<
0+
1a
1M
0G
#385000
b1011011 "
b1011010 "
0<
1@
1+
0a
0M
0b
1K
1b
#387500
b1011011 "
1<
0+
1a
1Z
0b
0[
#390000
b1011111 "
b1011101 "
b1011100 "
0<
0@
1;
1+
0a
0Z
1b
0K
1[
#392500
b1011101 "
1<
0+
1U
0S
1M
#395000
b1011111 "
b1011110 "
0<
1@
1+
0U
1S
0M
#397500
b1011111 "
1<
0+
1U
0S
#400000
b1111111 "
b1101111 "
b1100111 "
b1100011 "
b1100001 "
b1100000 "
0<
0@
0;
0A
0B
1=
1+
0U
1S
#402500
b1100001 "
1<
0+
#405000
b1100011 "
b1100010 "
0<
1@
1+
0D
#407500
b1100011 "
1<
0+
1Z
1M
#410000
b1100111 "
b1100101 "
b1100100 "
0<
0@
1;
1+
0Z
0M
1D
1L
1H
#412500
b1100101 "
1<
0+
1?
#415000
b1100111 "
b1100110 "
0<
1@
1+
0?
1Y
0D
0Y
1^
0^
#417500
b1100111 "
1<
0+
1M
1G
1?
0c
0N
0I
1Y
0E
0P
1^
#420000
b1101111 "
b1101011 "
b1101001 "
b1101000 "
0<
0@
0;
1A
1+
0M
0G
0?
0Y
1D
0L
0H
1I
1c
1N
1E
0^
1P
#422500
b1101001 "
1<
0+
#425000
b1101011 "
b1101010 "
0<
1@
1+
#427500
b1101011 "
1<
0+
1Z
#430000
b1101111 "
b1101101 "
b1101100 "
0<
0@
1;
1+
0Z
1L
#432500
b1101101 "
1<
0+
0S
1?
#435000
b1101111 "
b1101110 "
0<
1@
1+
1S
0?
#437500
b1101111 "
1<
0+
0S
1G
1?
#440000
b1111111 "
b1110111 "
b1110011 "
b1110001 "
b1110000 "
0<
0@
0;
0A
1B
1+
1S
0?
1\
1R
0L
#442500
b1110001 "
1<
0+
1a
0G
#445000
b1110011 "
b1110010 "
0<
1@
1+
0a
0\
0R
1K
#447500
b1110011 "
1<
0+
1a
1Z
#450000
b1110111 "
b1110101 "
b1110100 "
0<
0@
1;
1+
0a
0Z
1\
1R
0K
1L
1H
#452500
b1110101 "
1<
0+
1?
#455000
b1110111 "
b1110110 "
0<
1@
1+
0?
0\
0R
#457500
b1110111 "
1<
0+
1?
#460000
b1111111 "
b1111011 "
b1111001 "
b1111000 "
0<
0@
0;
1A
1+
1G
0?
1Y
1R
0L
0H
0Y
1^
0^
#462500
b1111001 "
1<
0+
1a
1M
0G
#465000
b1111011 "
b1111010 "
0<
1@
1+
0a
0M
0R
1K
#467500
b1111011 "
1<
0+
1a
1Z
#470000
b1111111 "
b1111101 "
b1111100 "
0<
0@
1;
1+
0a
0Z
1R
0K
1L
#472500
b1111101 "
1<
0+
0S
1M
1?
1W
0c
0N
1Y
0P
1^
#475000
b1111111 "
b1111110 "
0<
1@
1+
1S
0M
0?
0Y
0R
0W
1c
1N
0^
1P
#477500
b1111111 "
1<
0+
0S
1?
#480000
1#
b1011111 "
b1001111 "
b1000111 "
b1000011 "
b1000001 "
b1000000 "
1C
0<
0@
0;
0A
0B
0=
1+
1^
0V
0N
1S
0?
0L
1W
0P
#482500
b1000001 "
1<
0+
#485000
b1000011 "
b1000010 "
0<
1@
1+
#487500
b1000011 "
1<
0+
1Z
1M
#490000
b1000111 "
b1000101 "
b1000100 "
0<
0@
1;
1+
0Z
0M
#492500
b1000101 "
1<
0+
#495000
b1000111 "
b1000110 "
0<
1@
1+
#497500
b1000111 "
1<
0+
1M
1G
#500000
b1001111 "
b1001011 "
b1001001 "
b1001000 "
0<
0@
0;
1A
1+
0M
0G
#502500
b1001001 "
1<
0+
1O
#505000
b1001011 "
b1001010 "
0<
1@
1+
0O
#507500
b1001011 "
1<
0+
1Z
1O
#510000
b1001111 "
b1001101 "
b1001100 "
0<
0@
1;
1+
0Z
0O
#512500
b1001101 "
1<
0+
1U
0S
1O
#515000
b1001111 "
b1001110 "
0<
1@
1+
0U
1S
0O
#517500
b1001111 "
1<
0+
1U
0S
1O
1G
#520000
b1011111 "
b1010111 "
b1010011 "
b1010001 "
b1010000 "
0<
0@
0;
0A
1B
1+
0U
1S
0O
#522500
b1010001 "
1<
0+
1a
0G
#525000
b1010011 "
b1010010 "
0<
1@
1+
0a
1K
#527500
b1010011 "
1<
0+
1a
1Z
#530000
b1010111 "
b1010101 "
b1010100 "
0<
0@
1;
1+
0a
0Z
0K
#532500
b1010101 "
1<
0+
#535000
b1010111 "
b1010110 "
0<
1@
1+
#537500
b1010111 "
1<
0+
#540000
b1011111 "
b1011011 "
b1011001 "
b1011000 "
0<
0@
0;
1A
1+
1G
#542500
b1011001 "
1<
0+
1a
1O
1M
0G
#545000
b1011011 "
b1011010 "
0<
1@
1+
0a
0O
0M
0b
1K
1b
0c
1c
#547500
b1011011 "
1<
0+
1a
1Z
1O
0b
0[
1P
0c
0^
#550000
b1011111 "
b1011101 "
b1011100 "
0<
0@
1;
1+
0a
0Z
0O
1b
0K
1[
0P
1c
1^
#552500
b1011101 "
1<
0+
1U
0S
1O
1M
#555000
b1011111 "
b1011110 "
0<
1@
1+
0U
1S
0O
0M
#557500
b1011111 "
1<
0+
1U
0S
1O
#560000
b1111111 "
b1101111 "
b1100111 "
b1100011 "
b1100001 "
b1100000 "
0<
0@
0;
0A
0B
1=
1+
0U
1S
0O
#562500
b1100001 "
1<
0+
#565000
b1100011 "
b1100010 "
0<
1@
1+
#567500
b1100011 "
1<
0+
1Z
1M
#570000
b1100111 "
b1100101 "
b1100100 "
0<
0@
1;
1+
0Z
0M
1L
1H
#572500
b1100101 "
1<
0+
1?
#575000
b1100111 "
b1100110 "
0<
1@
1+
0?
1Y
0Y
#577500
b1100111 "
1<
0+
1M
1G
1?
1Y
#580000
b1101111 "
b1101011 "
b1101001 "
b1101000 "
0<
0@
0;
1A
1+
0M
0G
0?
0Y
0L
0H
0I
1I
#582500
b1101001 "
1<
0+
#585000
b1101011 "
b1101010 "
0<
1@
1+
#587500
b1101011 "
1<
0+
1Z
#590000
b1101111 "
b1101101 "
b1101100 "
0<
0@
1;
1+
0Z
1L
#592500
b1101101 "
1<
0+
0S
1?
#595000
b1101111 "
b1101110 "
0<
1@
1+
1S
0?
#597500
b1101111 "
1<
0+
0S
1G
1?
#600000
b1111111 "
b1110111 "
b1110011 "
b1110001 "
b1110000 "
0<
0@
0;
0A
1B
1+
1S
0?
1\
0L
#602500
b1110001 "
1<
0+
1a
0G
#605000
b1110011 "
b1110010 "
0<
1@
1+
0a
0\
1K
#607500
b1110011 "
1<
0+
1a
1Z
#610000
b1110111 "
b1110101 "
b1110100 "
0<
0@
1;
1+
0a
0Z
1\
0K
1L
1H
#612500
b1110101 "
1<
0+
1?
#615000
b1110111 "
b1110110 "
0<
1@
1+
0?
0\
#617500
b1110111 "
1<
0+
1?
#620000
b1111111 "
b1111011 "
b1111001 "
b1111000 "
0<
0@
0;
1A
1+
1G
0?
1Y
0L
0H
0Y
#622500
b1111001 "
1<
0+
1a
1M
0G
#625000
b1111011 "
b1111010 "
0<
1@
1+
0a
0M
1K
#627500
b1111011 "
1<
0+
1a
1Z
#630000
b1111111 "
b1111101 "
b1111100 "
0<
0@
1;
1+
0a
0Z
0K
1L
#632500
b1111101 "
1<
0+
0S
1M
1?
1Y
#635000
b1111111 "
b1111110 "
0<
1@
1+
1S
0M
0?
0Y
#637500
b1111111 "
1<
0+
0S
1?
#640000
0!
b111111 "
0#
b11111 "
b1111 "
b111 "
b11 "
b1 "
b0 "
09
0<
0@
0;
0A
0B
0=
0>
0C
0:
1+
0?
0L
0^
1V
1N
0W
1P
#642500
b1 "
1<
0+
1S
#645000
b11 "
b10 "
0<
1@
1+
0S
0D
#647500
b11 "
1<
0+
1S
1M
#650000
b111 "
b101 "
b100 "
0<
0@
1;
1+
0M
1D
#652500
b101 "
1<
0+
1a
1Z
#655000
b111 "
b110 "
0<
1@
1+
0a
0Z
1K
0D
#657500
b111 "
1<
0+
1a
1M
1G
#660000
b1111 "
b1011 "
b1001 "
b1000 "
0<
0@
0;
1A
1+
0a
0M
0G
0K
1D
#662500
b1001 "
1<
0+
#665000
b1011 "
b1010 "
0<
1@
1+
#667500
b1011 "
1<
0+
#670000
b1111 "
b1101 "
b1100 "
0<
0@
1;
1+
1H
#672500
b1101 "
1<
0+
1a
1Z
1U
#675000
b1111 "
b1110 "
0<
1@
1+
0a
0Z
0U
0b
1K
1b
#677500
b1111 "
1<
0+
1a
1U
1G
0b
#680000
b11111 "
b10111 "
b10011 "
b10001 "
b10000 "
0<
0@
0;
0A
1B
1+
0a
0U
0S
1b
1T
0K
0H
0I
1I
#682500
b10001 "
1<
0+
1S
0G
#685000
b10011 "
b10010 "
0<
1@
1+
0S
0T
#687500
b10011 "
1<
0+
1S
#690000
b10111 "
b10101 "
b10100 "
0<
0@
1;
1+
1T
1K
#692500
b10101 "
1<
0+
1Z
#695000
b10111 "
b10110 "
0<
1@
1+
0Z
0T
0K
#697500
b10111 "
1<
0+
#700000
b11111 "
b11011 "
b11001 "
b11000 "
0<
0@
0;
1A
1+
1G
1T
#702500
b11001 "
1<
0+
1M
0G
#705000
b11011 "
b11010 "
0<
1@
1+
0M
0T
#707500
b11011 "
1<
0+
#710000
b11111 "
b11101 "
b11100 "
0<
0@
1;
1+
1T
1K
1H
#712500
b11101 "
1<
0+
1Z
1U
1M
0[
#715000
b11111 "
b11110 "
0<
1@
1+
0Z
0U
0M
0T
0K
1[
#717500
b11111 "
1<
0+
1U
#720000
b111111 "
b101111 "
b100111 "
b100011 "
b100001 "
b100000 "
0<
0@
0;
0A
0B
1=
1+
0U
0S
#722500
b100001 "
1<
0+
1S
#725000
b100011 "
b100010 "
0<
1@
1+
0S
0D
#727500
b100011 "
1<
0+
1S
1M
#730000
b100111 "
b100101 "
b100100 "
0<
0@
1;
1+
0M
1D
0H
#732500
b100101 "
1<
0+
1a
1Z
#735000
b100111 "
b100110 "
0<
1@
1+
0a
0Z
1K
0D
#737500
b100111 "
1<
0+
1a
1M
1G
#740000
b101111 "
b101011 "
b101001 "
b101000 "
0<
0@
0;
1A
1+
0a
0M
0G
0K
1D
#742500
b101001 "
1<
0+
#745000
b101011 "
b101010 "
0<
1@
1+
#747500
b101011 "
1<
0+
#750000
b101111 "
b101101 "
b101100 "
0<
0@
1;
1+
#752500
b101101 "
1<
0+
1a
1Z
#755000
b101111 "
b101110 "
0<
1@
1+
0a
0Z
1K
#757500
b101111 "
1<
0+
1a
1G
#760000
b111111 "
b110111 "
b110011 "
b110001 "
b110000 "
0<
0@
0;
0A
1B
1+
0a
0S
1\
1T
1R
0K
1H
1W
1]
0I
1^
#762500
b110001 "
1<
0+
0]
1S
0G
0^
0W
1I
#765000
b110011 "
b110010 "
0<
1@
1+
1]
0S
0\
0T
0R
1^
0]
0^
#767500
b110011 "
1<
0+
1S
#770000
b110111 "
b110101 "
b110100 "
0<
0@
1;
1+
1\
1T
1R
1K
0H
#772500
b110101 "
1<
0+
1Z
#775000
b110111 "
b110110 "
0<
1@
1+
0Z
0\
0T
0R
0K
#777500
b110111 "
1<
0+
#780000
b111111 "
b111011 "
b111001 "
b111000 "
0<
0@
0;
1A
1+
1G
1T
1R
#782500
b111001 "
1<
0+
1M
0G
#785000
b111011 "
b111010 "
0<
1@
1+
0M
0T
0R
#787500
b111011 "
1<
0+
#790000
b111111 "
b111101 "
b111100 "
0<
0@
1;
1+
1T
1R
1K
#792500
b111101 "
1<
0+
1Z
1M
#795000
b111111 "
b111110 "
0<
1@
1+
0Z
0M
0T
0R
0K
#797500
b111111 "
1<
0+
#800000
1#
b11111 "
b1111 "
b111 "
b11 "
b1 "
b0 "
1C
0<
0@
0;
0A
0B
0=
1+
1^
0V
0N
0S
1W
0P
#802500
b1 "
1<
0+
1S
#805000
b11 "
b10 "
0<
1@
1+
0S
#807500
b11 "
1<
0+
1S
1M
#810000
b111 "
b101 "
b100 "
0<
0@
1;
1+
0M
#812500
b101 "
1<
0+
1a
1Z
#815000
b111 "
b110 "
0<
1@
1+
0a
0Z
1K
#817500
b111 "
1<
0+
1a
1M
1G
#820000
b1111 "
b1011 "
b1001 "
b1000 "
0<
0@
0;
1A
1+
0a
0M
0G
0K
#822500
b1001 "
1<
0+
1O
#825000
b1011 "
b1010 "
0<
1@
1+
0O
#827500
b1011 "
1<
0+
1O
#830000
b1111 "
b1101 "
b1100 "
0<
0@
1;
1+
0O
1H
#832500
b1101 "
1<
0+
1a
1Z
1U
1O
#835000
b1111 "
b1110 "
0<
1@
1+
0a
0Z
0U
0O
0b
1K
1b
0c
1c
#837500
b1111 "
1<
0+
1a
1U
1O
1G
0b
1P
0I
0c
#840000
b11111 "
b10111 "
b10011 "
b10001 "
b10000 "
0<
0@
0;
0A
1B
1+
0a
0U
0S
0O
1b
1T
0K
0H
1I
0P
1c
#842500
b10001 "
1<
0+
1S
0G
#845000
b10011 "
b10010 "
0<
1@
1+
0S
0T
#847500
b10011 "
1<
0+
1S
#850000
b10111 "
b10101 "
b10100 "
0<
0@
1;
1+
1T
1K
#852500
b10101 "
1<
0+
1Z
#855000
b10111 "
b10110 "
0<
1@
1+
0Z
0T
0K
#857500
b10111 "
1<
0+
#860000
b11111 "
b11011 "
b11001 "
b11000 "
0<
0@
0;
1A
1+
1G
1T
#862500
b11001 "
1<
0+
1O
1M
0G
#865000
b11011 "
b11010 "
0<
1@
1+
0O
0M
0T
#867500
b11011 "
1<
0+
1O
#870000
b11111 "
b11101 "
b11100 "
0<
0@
1;
1+
0O
1T
1K
1H
#872500
b11101 "
1<
0+
1Z
1U
1O
1M
0[
1V
1P
0^
0W
#875000
b11111 "
b11110 "
0<
1@
1+
0Z
0U
0O
0M
0T
0K
1[
0V
0P
1^
1W
#877500
b11111 "
1<
0+
1U
1O
#880000
b111111 "
b101111 "
b100111 "
b100011 "
b100001 "
b100000 "
0<
0@
0;
0A
0B
1=
1+
0U
0S
0O
#882500
b100001 "
1<
0+
1S
#885000
b100011 "
b100010 "
0<
1@
1+
0S
#887500
b100011 "
1<
0+
1S
1M
#890000
b100111 "
b100101 "
b100100 "
0<
0@
1;
1+
0M
0H
#892500
b100101 "
1<
0+
1a
1Z
#895000
b100111 "
b100110 "
0<
1@
1+
0a
0Z
1K
#897500
b100111 "
1<
0+
1a
1M
1G
#900000
b101111 "
b101011 "
b101001 "
b101000 "
0<
0@
0;
1A
1+
0a
0M
0G
0K
#902500
b101001 "
1<
0+
#905000
b101011 "
b101010 "
0<
1@
1+
#907500
b101011 "
1<
0+
#910000
b101111 "
b101101 "
b101100 "
0<
0@
1;
1+
#912500
b101101 "
1<
0+
1a
1Z
#915000
b101111 "
b101110 "
0<
1@
1+
0a
0Z
1K
#917500
b101111 "
1<
0+
1a
1G
#920000
b111111 "
b110111 "
b110011 "
b110001 "
b110000 "
0<
0@
0;
0A
1B
1+
0a
0S
1\
1T
0K
1H
1]
#922500
b110001 "
1<
0+
0]
1S
0G
#925000
b110011 "
b110010 "
0<
1@
1+
1]
0S
0\
0T
0]
#927500
b110011 "
1<
0+
1S
#930000
b110111 "
b110101 "
b110100 "
0<
0@
1;
1+
1\
1T
1K
0H
#932500
b110101 "
1<
0+
1Z
#935000
b110111 "
b110110 "
0<
1@
1+
0Z
0\
0T
0K
#937500
b110111 "
1<
0+
#940000
b111111 "
b111011 "
b111001 "
b111000 "
0<
0@
0;
1A
1+
1G
1T
#942500
b111001 "
1<
0+
1M
0G
#945000
b111011 "
b111010 "
0<
1@
1+
0M
0T
#947500
b111011 "
1<
0+
#950000
b111111 "
b111101 "
b111100 "
0<
0@
1;
1+
1T
1K
#952500
b111101 "
1<
0+
1Z
1M
#955000
b111111 "
b111110 "
0<
1@
1+
0Z
0M
0T
0K
#957500
b111111 "
1<
0+
#960000
1!
b1111111 "
0#
b1011111 "
b1001111 "
b1000111 "
b1000011 "
b1000001 "
b1000000 "
19
0<
0@
0;
0A
0B
0=
1>
0C
1:
1+
0^
1V
1N
0W
1P
#962500
b1000001 "
1<
0+
#965000
b1000011 "
b1000010 "
0<
1@
1+
0D
#967500
b1000011 "
1<
0+
1Z
1M
#970000
b1000111 "
b1000101 "
b1000100 "
0<
0@
1;
1+
0Z
0M
1D
#972500
b1000101 "
1<
0+
#975000
b1000111 "
b1000110 "
0<
1@
1+
0D
#977500
b1000111 "
1<
0+
1M
1G
