src/final/LFSR_r/simulation/qsim/lfsr.msim.vcd
$comment
	File created using the following command:
		vcd file lfsr.msim.vcd -direction
$end
$date
	Tue Jun 21 17:09:43 2022
$end
$version
	ModelSim Version 10.1d
$end
$timescale
	1ps
$end
$scope module lfsr_vlg_vec_tst $end
$var reg 1 ! clk $end
$var reg 6 " inSeed [0:5] $end
$var wire 1 # outt [0] $end
$var wire 1 $ outt [1] $end
$var wire 1 % outt [2] $end
$var wire 1 & outt [3] $end
$var wire 1 ' outt [4] $end
$var wire 1 ( outt [5] $end
$var wire 1 ) sampler $end
$scope module i1 $end
$var wire 1 * gnd $end
$var wire 1 + vcc $end
$var wire 1 , unknown $end
$var tri1 1 - devclrn $end
$var tri1 1 . devpor $end
$var tri1 1 / devoe $end
$var wire 1 0 outt[5]~output_o $end
$var wire 1 1 outt[4]~output_o $end
$var wire 1 2 outt[3]~output_o $end
$var wire 1 3 outt[2]~output_o $end
$var wire 1 4 outt[1]~output_o $end
$var wire 1 5 outt[0]~output_o $end
$var wire 1 6 clk~input_o $end
$var wire 1 7 clk~inputclkctrl_outclk $end
$var wire 1 8 inSeed[4]~input_o $end
$var wire 1 9 tempInt[0]~0_combout $end
$var wire 1 : outt[5]~reg0_q $end
$var wire 1 ; inSeed[3]~input_o $end
$var wire 1 < inSeed[5]~input_o $end
$var wire 1 = temp~0_combout $end
$var wire 1 > temp~q $end
$var wire 1 ? inSeed[0]~input_o $end
$var wire 1 @ inSeed[1]~input_o $end
$var wire 1 A Mod0|auto_generated|divider|divider|add_sub_3_result_int[1]~1 $end
$var wire 1 B Mod0|auto_generated|divider|divider|add_sub_3_result_int[2]~3 $end
$var wire 1 C Mod0|auto_generated|divider|divider|add_sub_3_result_int[3]~5 $end
$var wire 1 D Mod0|auto_generated|divider|divider|add_sub_3_result_int[4]~6_combout $end
$var wire 1 E Mod0|auto_generated|divider|divider|StageOut[21]~24_combout $end
$var wire 1 F Mod0|auto_generated|divider|divider|add_sub_3_result_int[3]~4_combout $end
$var wire 1 G Mod0|auto_generated|divider|divider|StageOut[21]~25_combout $end
$var wire 1 H Mod0|auto_generated|divider|divider|add_sub_3_result_int[2]~2_combout $end
$var wire 1 I Mod0|auto_generated|divider|divider|StageOut[20]~27_combout $end
$var wire 1 J Mod0|auto_generated|divider|divider|StageOut[20]~26_combout $end
$var wire 1 K Mod0|auto_generated|divider|divider|add_sub_3_result_int[1]~0_combout $end
$var wire 1 L Mod0|auto_generated|divider|divider|StageOut[19]~29_combout $end
$var wire 1 M Mod0|auto_generated|divider|divider|StageOut[19]~28_combout $end
$var wire 1 N inSeed[2]~input_o $end
$var wire 1 O Mod0|auto_generated|divider|divider|StageOut[18]~30_combout $end
$var wire 1 P Mod0|auto_generated|divider|divider|StageOut[18]~31_combout $end
$var wire 1 Q Mod0|auto_generated|divider|divider|add_sub_4_result_int[1]~1 $end
$var wire 1 R Mod0|auto_generated|divider|divider|add_sub_4_result_int[2]~3 $end
$var wire 1 S Mod0|auto_generated|divider|divider|add_sub_4_result_int[3]~5 $end
$var wire 1 T Mod0|auto_generated|divider|divider|add_sub_4_result_int[4]~7 $end
$var wire 1 U Mod0|auto_generated|divider|divider|add_sub_4_result_int[5]~8_combout $end
$var wire 1 V Mod0|auto_generated|divider|divider|StageOut[24]~33_combout $end
$var wire 1 W Mod0|auto_generated|divider|divider|StageOut[24]~32_combout $end
$var wire 1 X Mod0|auto_generated|divider|divider|add_sub_5_result_int[1]~0_combout $end
$var wire 1 Y Mod0|auto_generated|divider|divider|StageOut[28]~44_combout $end
$var wire 1 Z Mod0|auto_generated|divider|divider|add_sub_4_result_int[4]~6_combout $end
$var wire 1 [ Mod0|auto_generated|divider|divider|StageOut[28]~34_combout $end
$var wire 1 \ Mod0|auto_generated|divider|divider|StageOut[27]~45_combout $end
$var wire 1 ] Mod0|auto_generated|divider|divider|add_sub_4_result_int[3]~4_combout $end
$var wire 1 ^ Mod0|auto_generated|divider|divider|StageOut[27]~35_combout $end
$var wire 1 _ Mod0|auto_generated|divider|divider|StageOut[26]~46_combout $end
$var wire 1 ` Mod0|auto_generated|divider|divider|add_sub_4_result_int[2]~2_combout $end
$var wire 1 a Mod0|auto_generated|divider|divider|StageOut[26]~36_combout $end
$var wire 1 b Mod0|auto_generated|divider|divider|StageOut[25]~37_combout $end
$var wire 1 c Mod0|auto_generated|divider|divider|add_sub_4_result_int[1]~0_combout $end
$var wire 1 d Mod0|auto_generated|divider|divider|StageOut[25]~38_combout $end
$var wire 1 e Mod0|auto_generated|divider|divider|add_sub_5_result_int[1]~1 $end
$var wire 1 f Mod0|auto_generated|divider|divider|add_sub_5_result_int[2]~3 $end
$var wire 1 g Mod0|auto_generated|divider|divider|add_sub_5_result_int[3]~5 $end
$var wire 1 h Mod0|auto_generated|divider|divider|add_sub_5_result_int[4]~7 $end
$var wire 1 i Mod0|auto_generated|divider|divider|add_sub_5_result_int[5]~9 $end
$var wire 1 j Mod0|auto_generated|divider|divider|add_sub_5_result_int[6]~10_combout $end
$var wire 1 k Mod0|auto_generated|divider|divider|StageOut[31]~39_combout $end
$var wire 1 l outt[4]~5_combout $end
$var wire 1 m outt[4]~reg0_q $end
$var wire 1 n Mod0|auto_generated|divider|divider|add_sub_5_result_int[2]~2_combout $end
$var wire 1 o Mod0|auto_generated|divider|divider|StageOut[32]~40_combout $end
$var wire 1 p outt[4]~6 $end
$var wire 1 q outt[3]~7_combout $end
$var wire 1 r outt[3]~reg0_q $end
$var wire 1 s Mod0|auto_generated|divider|divider|add_sub_5_result_int[3]~4_combout $end
$var wire 1 t Mod0|auto_generated|divider|divider|StageOut[33]~41_combout $end
$var wire 1 u outt[3]~8 $end
$var wire 1 v outt[2]~9_combout $end
$var wire 1 w outt[2]~reg0_q $end
$var wire 1 x Mod0|auto_generated|divider|divider|add_sub_5_result_int[4]~6_combout $end
$var wire 1 y Mod0|auto_generated|divider|divider|StageOut[34]~42_combout $end
$var wire 1 z outt[2]~10 $end
$var wire 1 { outt[1]~11_combout $end
$var wire 1 | outt[1]~reg0_q $end
$var wire 1 } Mod0|auto_generated|divider|divider|add_sub_5_result_int[5]~8_combout $end
$var wire 1 ~ Mod0|auto_generated|divider|divider|StageOut[35]~43_combout $end
$var wire 1 !! outt[1]~12 $end
$var wire 1 "! outt[0]~13_combout $end
$var wire 1 #! outt[0]~reg0_q $end
$var wire 1 $! tempInt [31] $end
$var wire 1 %! tempInt [30] $end
$var wire 1 &! tempInt [29] $end
$var wire 1 '! tempInt [28] $end
$var wire 1 (! tempInt [27] $end
$var wire 1 )! tempInt [26] $end
$var wire 1 *! tempInt [25] $end
$var wire 1 +! tempInt [24] $end
$var wire 1 ,! tempInt [23] $end
$var wire 1 -! tempInt [22] $end
$var wire 1 .! tempInt [21] $end
$var wire 1 /! tempInt [20] $end
$var wire 1 0! tempInt [19] $end
$var wire 1 1! tempInt [18] $end
$var wire 1 2! tempInt [17] $end
$var wire 1 3! tempInt [16] $end
$var wire 1 4! tempInt [15] $end
$var wire 1 5! tempInt [14] $end
$var wire 1 6! tempInt [13] $end
$var wire 1 7! tempInt [12] $end
$var wire 1 8! tempInt [11] $end
$var wire 1 9! tempInt [10] $end
$var wire 1 :! tempInt [9] $end
$var wire 1 ;! tempInt [8] $end
$var wire 1 <! tempInt [7] $end
$var wire 1 =! tempInt [6] $end
$var wire 1 >! tempInt [5] $end
$var wire 1 ?! tempInt [4] $end
$var wire 1 @! tempInt [3] $end
$var wire 1 A! tempInt [2] $end
$var wire 1 B! tempInt [1] $end
$var wire 1 C! tempInt [0] $end
$upscope $end
$upscope $end
$enddefinitions $end
#0
$dumpvars
0!
b0 "
0(
0'
0&
0%
0$
0#
x)
0*
1+
x,
1-
1.
1/
00
01
02
03
04
05
06
07
08
19
0:
0;
0<
0=
0>
0?
0@
0A
1B
0C
1D
0E
0F
0G
1H
0I
0J
1K
0L
0M
0N
0O
0P
0Q
1R
0S
1T
1U
0V
0W
1X
0Y
1Z
0[
0\
0]
0^
0_
1`
0a
0b
1c
0d
0e
1f
0g
1h
0i
1j
0k
1l
0m
1n
0o
0p
0q
0r
0s
0t
1u
0v
0w
1x
0y
0z
0{
0|
1}
0~
1!!
0"!
0#!
0C!
0B!
0A!
0@!
0?!
0>!
z=!
z<!
z;!
z:!
z9!
z8!
z7!
z6!
z5!
z4!
z3!
z2!
z1!
z0!
z/!
z.!
z-!
z,!
z+!
z*!
z)!
z(!
z'!
z&!
z%!
z$!
$end
#5000
1!
16
17
0)
1C!
1m
0l
11
1'
#10000
b1 "
0!
1<
06
07
1)
1=
#15000
1!
16
17
0)
1>
0m
1:
1Y
1E
1F
01
10
0'
1(
1~
1i
0}
0T
0Z
0j
0U
0~
1y
1o
1k
1d
1a
0Y
0f
0n
1s
0i
1}
1g
0s
0o
1t
1j
1~
0h
0x
0~
0y
1o
0k
1i
0}
0j
0t
0o
1k
#20000
b11 "
b10 "
0!
0<
18
06
07
1)
09
#25000
1!
16
17
0)
1B!
0C!
1p
1q
#30000
b11 "
0!
1<
06
07
1)
0=
#35000
1!
16
17
0)
0>
1r
0:
0E
0F
12
00
1&
0(
1T
1Z
1U
1[
0d
0a
0[
1}
1f
1n
0g
1s
1~
0}
0s
1o
1h
1x
1t
0~
0t
0i
1}
1y
1j
1~
0~
0y
0o
0k
#40000
b111 "
b101 "
b100 "
0!
0<
08
1;
06
07
1)
19
1k
1W
1e
0X
0f
0n
1s
#45000
1!
16
17
0)
1C!
0p
1l
0q
#50000
b101 "
0!
1<
06
07
1)
1=
#55000
1!
16
17
0)
1>
0r
1m
1:
1Y
1E
1F
02
11
10
0&
1'
1(
1~
1i
0}
0T
0Z
0j
0U
0~
1y
1t
0k
1d
1a
0Y
0W
1V
1n
1g
0s
0i
1}
1o
0h
0x
0t
1j
1~
1i
0}
0y
0~
1t
1k
0j
0t
0k
#60000
b111 "
b110 "
0!
0<
18
06
07
1)
09
#65000
1!
16
17
0)
1A!
0B!
0C!
1q
#70000
b111 "
0!
1<
06
07
1)
0=
#75000
1!
16
17
0)
0>
1r
0:
0E
0F
12
00
1&
0(
1T
1Z
1U
1[
0d
0a
0[
1W
0V
1}
0n
0g
1s
1~
0}
0o
1h
1x
1t
0~
0i
1}
1y
1j
1~
0~
0y
0t
1k
#80000
b1111 "
b1011 "
b1001 "
b1000 "
0!
0<
08
0;
1N
06
07
1)
19
0k
0W
1b
1O
0e
1X
1o
1n
1Q
0c
0n
0R
0`
1]
#85000
1!
16
17
0)
1C!
0l
#90000
b1001 "
0!
1<
06
07
1)
1=
#95000
1!
16
17
0)
1>
0m
1:
1Y
1E
1F
01
10
0'
1(
1~
1i
0}
0T
0Z
0j
0U
0~
1y
1t
0o
1k
0b
1^
0Y
1f
1n
0h
0x
0i
1}
0s
1o
1i
0}
0y
1j
1~
0t
0j
0~
1y
0o
0k
0y
1o
1k
#100000
b1011 "
b1010 "
0!
0<
18
06
07
1)
09
#105000
1!
16
17
0)
1B!
0C!
1p
0u
0q
1v
#110000
b1011 "
0!
1<
06
07
1)
0=
#115000
1!
16
17
0)
0>
1w
0r
0:
0E
0F
13
02
00
1%
0&
0(
1T
1Z
1U
1[
1b
0^
0[
1}
0f
0n
1h
1x
1~
0}
1s
0o
0i
1}
1y
0~
1t
1j
1~
0~
0y
0t
1o
0k
#120000
b1111 "
b1101 "
b1100 "
0!
0<
08
1;
06
07
1)
19
1k
1W
1e
0X
1n
#125000
1!
16
17
0)
1C!
0p
1l
1u
1q
0v
#130000
b1101 "
0!
1<
06
07
1)
1=
#135000
1!
16
17
0)
1>
0w
1r
1m
1:
1Y
1E
1F
03
12
11
10
0%
1&
1'
1(
1~
1i
0}
0T
0Z
0j
0U
0~
1y
1t
0k
0b
1^
0Y
0W
1V
0n
0h
0x
0i
1}
0o
1i
0}
0y
1j
1~
0j
0~
1y
0t
1k
0y
1t
0k
#140000
b1111 "
b1110 "
0!
0<
18
06
07
1)
09
#145000
1!
16
17
0)
1@!
0A!
0B!
0C!
1v
0q
#150000
b1111 "
0!
1<
06
07
1)
0=
#155000
1!
16
17
0)
0>
1w
0r
0:
0E
0F
13
02
00
1%
0&
0(
1T
1Z
1U
1[
1b
0^
0[
1W
0V
1}
1n
1h
1x
1~
0}
1o
0i
1}
1y
0~
1j
1~
0~
0y
0t
1k
#160000
b11111 "
b10111 "
b10011 "
b10001 "
b10000 "
0!
0<
08
0;
0N
1@
06
07
1)
19
0k
0W
0b
0O
1_
1M
1A
0K
0e
1X
0o
0n
0Q
1c
1t
1g
0s
1`
0B
0H
1f
1n
0`
0h
0x
1F
0g
1s
1i
0}
1h
1x
0j
0i
1}
1y
1o
1k
1j
1~
0~
0y
0o
0k
#165000
1!
16
17
0)
1C!
0l
#170000
b10001 "
0!
1<
06
07
1)
1=
#175000
1!
16
17
0)
1>
0m
1:
1Y
1E
1C
0F
01
10
0'
1(
1~
1i
0}
0T
0Z
0D
0j
0U
0_
0Y
0M
0E
0~
1y
1o
1k
1d
1^
0s
0i
1}
1R
1`
1T
1Z
0f
0n
0h
0x
0t
1j
1~
0]
1a
1U
1[
1g
1i
1t
0k
0^
0d
0a
0[
0j
0y
0o
1f
1n
0t
0g
1s
0~
0}
1t
1o
1k
0s
1h
1x
0t
0i
1}
1y
1j
1~
0~
0y
0o
0k
#180000
b10011 "
b10010 "
0!
0<
18
06
07
1)
09
#185000
1!
16
17
0)
0@!
0C!
0v
1l
#190000
b10011 "
0!
1<
06
07
1)
0=
#195000
1!
16
17
0)
0>
0w
1m
0:
0C
1F
03
11
00
0%
1'
0(
1D
1Y
1G
1_
0Y
1M
0G
1~
1i
0}
0T
0Z
1t
1s
0~
0i
1}
0R
0`
1T
1Z
0j
0U
1j
1~
1]
1U
1[
1y
1o
1k
1d
0_
0y
0t
0k
0d
1_
0[
1i
0}
0f
0n
0s
0o
1f
1n
1t
1g
0~
0i
1}
0j
0g
1s
1o
0h
0x
1j
1~
1y
0t
1k
1h
1x
1t
1i
0}
0y
0~
0o
0k
0i
1}
0j
1j
1~
1y
1o
1k
0~
0y
0o
0k
#200000
b10111 "
b10101 "
b10100 "
0!
0<
08
1;
06
07
1)
19
1k
1W
1e
0X
0f
0n
1g
0s
0h
0x
1i
0}
0j
0t
0k
#205000
1!
16
17
0)
1C!
0l
#210000
b10101 "
0!
1<
06
07
1)
1=
#215000
1!
16
17
0)
1>
0m
1:
1Y
1E
1C
0F
01
10
0'
1(
1}
0T
0Z
0D
1~
0U
0_
0Y
0M
0E
1d
1^
0W
1V
0g
1s
0}
1R
1`
1T
1Z
1n
1t
0~
0]
1a
1U
1[
1o
0^
1g
0s
0d
0a
0[
1W
0V
1}
0t
0n
0g
1s
1~
0}
0o
1h
1x
1t
0~
0i
1}
1y
1j
1~
0~
0y
0t
1k
#220000
b10111 "
b10110 "
0!
0<
18
06
07
1)
09
#225000
1!
16
17
0)
1B!
0C!
1p
1q
#230000
b10111 "
0!
1<
06
07
1)
0=
#235000
1!
16
17
0)
0>
1r
0:
0C
1F
12
00
1&
0(
1D
1Y
1G
1_
0Y
1M
0G
1~
1i
0}
0T
0Z
1t
1g
0s
0~
0i
1}
0R
0`
1T
1Z
0j
0U
0h
0x
0t
1j
1~
1]
1U
1[
1y
0k
1d
0_
0W
1V
1i
0y
1o
1k
0d
1_
0[
1W
0V
1n
0g
1s
0j
0o
0n
1t
1g
0s
0~
0}
1h
1x
1y
0t
0k
0h
0x
0i
1}
1i
0}
0y
1j
1~
0j
0~
1t
1k
0t
0k
#240000
b11111 "
b11011 "
b11001 "
b11000 "
0!
0<
08
0;
1N
06
07
1)
19
0W
1b
1O
0e
1X
1n
1Q
0c
0n
1k
1o
1`
0o
#245000
1!
16
17
0)
1C!
0p
1l
0q
#250000
b11001 "
0!
1<
06
07
1)
1=
#255000
1!
16
17
0)
1>
0r
1m
1:
1Y
1E
1C
0F
02
11
10
0&
1'
1(
1}
0T
0Z
0D
1~
0U
0_
0Y
1P
0O
0M
0E
0b
1a
1^
0g
1s
0}
0`
1T
1Z
1f
1n
1t
1g
0s
0~
0a
1U
1[
0g
1o
1x
0t
1b
0^
0[
1}
1h
1y
0f
0n
1~
0}
0i
1}
1s
0o
0~
1j
1~
1t
0~
0y
0t
1o
0k
#260000
b11011 "
b11010 "
0!
0<
18
06
07
1)
09
#265000
1!
16
17
0)
1A!
0B!
0C!
1q
#270000
b11011 "
0!
1<
06
07
1)
0=
#275000
1!
16
17
0)
0>
1r
0:
0C
1F
12
00
1&
0(
1D
1Y
1G
1_
0Y
0P
1O
1M
0G
1~
1i
0}
0T
0Z
1t
1g
0s
0~
0i
1}
1`
1T
1Z
0j
0U
0h
0x
0t
1j
1~
1a
1U
1[
1y
0o
1k
0b
0_
1^
1i
1t
0k
1b
0a
1_
0^
0[
1f
1n
1x
0j
1o
0f
0n
0g
1s
0y
0x
0~
0}
0o
1k
1g
0s
1h
1x
0h
0x
0t
0i
1}
1y
1i
0}
0y
1j
1~
0j
0~
1t
1o
0k
0t
0o
1k
#280000
b11111 "
b11101 "
b11100 "
0!
0<
08
1;
06
07
1)
19
1W
1e
0X
1n
0k
1o
#285000
1!
16
17
0)
1C!
0l
#290000
b11101 "
0!
1<
06
07
1)
1=
#295000
1!
16
17
0)
1>
0m
1:
1Y
1E
1C
0F
01
10
0'
1(
1}
0T
0Z
0D
1~
0U
0_
0Y
1P
0O
0M
0E
0b
1a
1^
0W
1V
0g
1s
0}
0`
1T
1Z
0n
1t
1g
0s
0~
0a
1U
1[
0o
1x
0t
0g
1s
1b
0^
0[
1W
0V
1}
1y
1h
1t
1n
1~
0}
0i
1}
1o
0~
1j
1~
0~
0y
0t
1k
#300000
b11111 "
b11110 "
0!
0<
18
06
07
1)
09
#305000
1!
16
17
0)
1B!
0C!
1p
0u
0q
1v
#310000
b11111 "
0!
1<
06
07
1)
0=
#315000
1!
16
17
0)
0>
1w
0r
0:
0C
1F
13
02
00
1%
0&
0(
1D
1Y
1G
1_
0Y
0P
1O
1M
0G
1~
1i
0}
0T
0Z
1t
1g
0s
0~
0i
1}
1`
1T
1Z
0j
0U
0h
0x
0t
1j
1~
1a
1U
1[
1y
0k
0b
0_
1^
0W
1V
1i
1t
0o
1k
1b
0a
1_
0^
0[
1W
0V
0n
1x
0j
1o
1n
0y
0x
0~
0}
0t
0k
#320000
b111111 "
b101111 "
b100111 "
b100011 "
b100001 "
b100000 "
0!
0<
08
0;
0N
0@
1?
06
07
1)
19
0W
0b
0O
0_
0M
0A
1K
1\
1J
1H
0e
1X
0n
0Q
1c
0g
1s
0`
0H
1x
1S
0]
1f
1n
1k
0o
1R
1`
0x
1t
1y
0T
0Z
0s
1o
0S
1]
0y
0U
0t
1T
1Z
1^
1d
1a
0\
1U
1[
0f
0n
1s
0d
0a
0^
1\
0[
1}
1g
0s
0o
1t
1f
1n
0t
0g
1s
1x
1~
0}
0s
1o
0x
1t
1y
0~
0t
0y
#325000
1!
16
17
0)
1C!
0p
1l
1u
1q
0v
#330000
b100001 "
0!
1<
06
07
1)
1=
#335000
1!
16
17
0)
1>
0w
1r
1m
1:
1Y
1E
1C
0F
03
12
11
10
0%
1&
1'
1(
1}
0T
0Z
0D
1~
0U
1_
0\
0Y
1L
0J
0E
1d
1a
0_
1^
1s
1h
1x
0}
0R
0`
0]
1T
1Z
0f
0n
1t
1y
0h
0x
0i
1}
0~
1]
0a
0^
1U
1[
0o
1i
0y
1j
1~
1h
1x
0d
1_
0[
0j
0~
0k
0i
1f
1n
1g
0s
1~
1y
0t
1o
1k
1j
0g
1s
0h
0x
0~
0y
1t
0o
0k
1h
1x
1i
0}
0i
1}
0j
1j
1~
1y
1o
1k
0~
0y
0o
0k
#340000
b100011 "
b100010 "
0!
0<
18
06
07
1)
09
#345000
1!
16
17
0)
1@!
0A!
0B!
0C!
1v
0q
#350000
b100011 "
0!
1<
06
07
1)
0=
#355000
1!
16
17
0)
0>
1w
0r
0:
0C
1F
13
02
00
1%
0&
0(
1D
1Y
1G
0_
1\
0Y
0L
1J
0G
1~
1i
0}
0T
0Z
0t
0s
1y
0h
0x
0~
0i
1}
1R
1`
1S
0]
1T
1Z
0j
0U
1i
0}
0y
1j
1~
0S
1]
1a
0T
0Z
1U
1[
1o
1k
1d
0\
0j
1t
0k
1T
1Z
1s
0U
0[
0d
0a
1\
1}
0f
0n
1h
1x
1y
0o
1k
1U
1[
1d
1a
1^
0\
0i
1f
1n
0h
0x
0d
0a
0^
1\
0[
1i
1o
0f
0n
0y
1j
0o
1f
1n
0t
1y
0~
0}
0j
0k
0s
1o
0y
1t
1k
0t
#360000
b100111 "
b100101 "
b100100 "
0!
0<
08
1;
06
07
1)
19
1W
1e
0X
0f
0n
0k
1s
0o
1t
#365000
1!
16
17
0)
1C!
0l
#370000
b100101 "
0!
1<
06
07
1)
1=
#375000
1!
16
17
0)
1>
0m
1:
1Y
1E
1C
0F
01
10
0'
1(
1}
0T
0Z
0D
1~
0U
1_
0\
0Y
1L
0J
0E
1d
1a
0_
1^
0W
1V
1g
0s
1h
1x
0}
0R
0`
0]
1T
1Z
1n
0t
1y
0h
0i
1}
0~
1]
0a
0^
1U
1[
1o
1i
1j
1~
0g
1s
0x
0d
1_
0[
1W
0V
0j
0~
0y
1t
0o
1k
1h
1x
0n
1g
0s
0}
1y
0t
0k
0i
1}
0h
0x
1j
1~
1i
0}
0y
0~
1t
1k
0j
0t
0k
#380000
b100111 "
b100110 "
0!
0<
18
06
07
1)
09
#385000
1!
16
17
0)
0@!
0C!
0v
1l
#390000
b100111 "
0!
1<
06
07
1)
0=
#395000
1!
16
17
0)
0>
0w
1m
0:
0C
1F
03
11
00
0%
1'
0(
1D
1Y
1G
0_
1\
0Y
0L
1J
0G
1}
0T
0Z
0g
1s
1x
1~
0}
1R
1`
1S
0]
1T
1Z
0U
0x
1t
1y
0~
0S
1]
1a
0T
0Z
1U
1[
1d
0\
0W
1V
0y
1T
1Z
1g
0s
0U
0[
0d
0a
1\
1W
0V
1}
1n
1h
1x
1U
1[
0h
0t
1d
1a
1^
0\
0W
1V
1~
0i
1o
0n
0g
1s
1y
0d
0a
0^
1\
0[
1W
0V
1i
0o
1n
1t
1g
0s
0x
1j
0n
0t
0g
1s
1x
0~
0}
0j
1k
0x
1t
0k
0y
#400000
b101111 "
b101011 "
b101001 "
b101000 "
0!
0<
08
0;
1N
06
07
1)
19
0W
1b
1O
0e
1X
1n
1Q
0c
0n
1k
1o
0R
0`
0o
1S
0]
0T
0Z
0U
0b
0\
1f
1n
1h
1x
0s
1o
0i
1}
1y
0t
1j
1~
0~
0y
0o
0k
#405000
1!
16
17
0)
1C!
0l
#410000
b101001 "
0!
1<
06
07
1)
1=
#415000
1!
16
17
0)
1>
0m
1:
1E
1C
0F
01
10
0'
1(
1Z
0D
1[
1P
0O
1L
0J
0E
1~
1i
0}
1`
0S
1]
0Z
0j
1a
1T
1Z
1^
0[
0~
1y
1o
1k
1s
1U
1[
0h
0x
0i
1}
1t
1b
0a
1_
0^
0[
1~
1i
0y
1j
0f
0n
1h
1x
0~
0}
0j
0k
1g
0s
0o
0i
1}
1y
1k
0h
0x
0t
1j
1~
1i
0}
0y
0~
1t
1o
0k
0j
0t
0o
1k
#420000
b101011 "
b101010 "
0!
0<
18
06
07
1)
09
#425000
1!
16
17
0)
1B!
0C!
1p
1q
#430000
b101011 "
0!
1<
06
07
1)
0=
#435000
1!
16
17
0)
0>
1r
0:
0C
1F
12
00
1&
0(
1D
1Y
1G
0_
1\
0Y
0P
1O
0L
1J
0G
1}
0T
0Z
0g
1s
1x
1~
0}
0`
1S
0]
1T
1Z
0U
0x
1t
1y
0~
0T
0Z
1U
1[
0b
0\
0y
0U
0[
1b
1\
1}
1f
1n
1h
1x
0b
0\
1~
0i
1o
0f
0n
1y
0h
0x
0s
0o
1f
1n
0y
1h
1x
1j
1s
1i
0}
0t
0s
0i
1}
0~
0k
0j
1j
1~
1y
1o
1k
0~
0y
0o
0k
#440000
b101111 "
b101101 "
b101100 "
0!
0<
08
1;
06
07
1)
19
1k
1V
1e
0X
0f
0n
1s
#445000
1!
16
17
0)
1C!
0p
1l
0q
#450000
b101101 "
0!
1<
06
07
1)
1=
#455000
1!
16
17
0)
1>
0r
1m
1:
1E
1C
0F
02
11
10
0&
1'
1(
1Z
0D
1[
1P
0O
1L
0J
0E
1~
1i
0}
1`
0S
1]
0Z
0j
1a
1T
1Z
1^
0[
0~
1y
1t
0k
1g
0s
1U
1[
0h
0x
0i
1}
1x
0t
1b
0a
1_
0^
0[
1W
0V
1~
1i
0y
1j
1o
1n
1t
0x
0~
0}
0j
1k
0t
0k
#460000
b101111 "
b101110 "
0!
0<
18
06
07
1)
09
#465000
1!
16
17
0)
1A!
0B!
0C!
1q
#470000
b101111 "
0!
1<
06
07
1)
0=
#475000
1!
16
17
0)
0>
1r
0:
0C
1F
12
00
1&
0(
1D
1Y
1G
0_
1\
0Y
0P
1O
0L
1J
0G
1}
0T
0Z
0g
1s
1x
1~
0}
0`
1S
0]
1T
1Z
0U
0x
1t
1y
0~
0T
0Z
1U
1[
0b
0\
0W
1V
0y
0U
0[
1b
1\
1W
0V
1}
0n
1h
1x
0b
0\
0W
1V
1~
0i
0o
1n
1y
0h
0x
1o
0n
0y
1h
1x
1j
1i
0}
0o
0i
1}
0~
0t
1k
0j
1j
1~
1y
1t
0k
0~
0y
0t
1k
#480000
b111111 "
b110111 "
b110011 "
b110001 "
b110000 "
0!
0<
08
0;
0N
1@
06
07
1)
19
0k
0V
0O
1M
1A
0K
0e
1X
0Q
1c
1`
1H
1f
1n
0`
1d
1a
1o
0a
0f
0n
1t
0t
#485000
1!
16
17
0)
1C!
0l
#490000
b110001 "
0!
1<
06
07
1)
1=
#495000
1!
16
17
0)
1>
0m
1:
1E
1C
0F
01
10
0'
1(
1Z
0D
1[
0M
0J
1I
0E
1~
1i
0}
1R
1`
0Z
0j
0S
1]
1a
0[
0~
1y
1t
0o
1k
1T
1Z
1^
1g
0s
0i
1}
1U
1[
0h
0t
1j
1~
0d
0a
0^
1\
0[
1i
1t
1o
0k
0o
1f
1n
0t
0g
1s
0~
0}
0j
0s
1o
0x
1t
1k
0t
0y
#500000
b110011 "
b110010 "
0!
0<
18
06
07
1)
09
#505000
1!
16
17
0)
1B!
0C!
1p
0u
0q
1v
#510000
b110011 "
0!
1<
06
07
1)
0=
#515000
1!
16
17
0)
0>
1w
0r
0:
0C
1F
13
02
00
1%
0&
0(
1D
1Y
1G
1_
0Y
1M
1J
0I
0G
1}
0T
0Z
1s
1~
0}
0R
0`
1T
1Z
0U
1t
0~
1S
0]
1U
1[
1d
0_
1^
0\
0T
0Z
0^
0d
1_
1\
0[
1}
0f
0n
0s
0U
0o
1f
1n
0t
1g
1~
0}
1d
0_
0\
0g
1s
1o
1x
0~
0f
0n
1t
0s
1y
1h
1s
0o
0t
0i
1}
1t
1j
1~
0~
0y
0t
1o
0k
#520000
b110111 "
b110101 "
b110100 "
0!
0<
08
1;
06
07
1)
19
1k
1V
1e
0X
1n
#525000
1!
16
17
0)
1C!
0p
1l
1u
1q
0v
#530000
b110101 "
0!
1<
06
07
1)
1=
#535000
1!
16
17
0)
1>
0w
1r
1m
1:
1E
1C
0F
03
12
11
10
0%
1&
1'
1(
1Z
0D
1[
0M
0J
1I
0E
1~
1i
0}
1R
1`
0Z
0j
0S
1]
1a
0[
0~
1y
1t
0k
1T
1Z
1^
1g
0s
0i
1}
1U
1[
0h
0t
1j
1~
0d
0a
0^
1\
0[
1W
0V
1i
1t
1k
0o
0n
0t
0g
1s
0~
0}
0j
0x
1t
0k
0y
#540000
b110111 "
b110110 "
0!
0<
18
06
07
1)
09
#545000
1!
16
17
0)
1@!
0A!
0B!
0C!
1v
0q
#550000
b110111 "
0!
1<
06
07
1)
0=
#555000
1!
16
17
0)
0>
1w
0r
0:
0C
1F
13
02
00
1%
0&
0(
1D
1Y
1G
1_
0Y
1M
1J
0I
0G
1}
0T
0Z
1g
0s
1~
0}
0R
0`
1T
1Z
0U
1x
0t
0~
1S
0]
1U
1[
1d
0_
1^
0\
0W
1V
1y
0T
0Z
0^
0d
1_
1\
0[
1W
0V
1}
1n
0g
1s
0U
0x
1o
0n
1t
1g
0s
1~
0}
1d
0_
0\
0W
1V
0y
0o
1x
0t
0~
1n
0g
1s
1y
0x
1o
1h
1x
1t
0y
0i
1}
1y
1j
1~
0~
0y
0t
1k
#560000
b111111 "
b111011 "
b111001 "
b111000 "
0!
0<
08
0;
1N
06
07
1)
19
0k
0V
1O
0e
1X
1Q
0c
0n
1`
0d
0o
1a
1f
1n
1t
#565000
1!
16
17
0)
1C!
0l
#570000
b111001 "
0!
1<
06
07
1)
1=
#575000
1!
16
17
0)
1>
0m
1:
1E
1C
0F
01
10
0'
1(
1Z
0D
1[
1P
0O
0M
0J
1I
0E
1~
1i
0}
0`
0Z
0j
0a
0[
0~
1y
1o
1k
0s
0i
1}
0t
1j
1~
0~
0y
0o
0k
#580000
b111011 "
b111010 "
0!
0<
18
06
07
1)
09
#585000
1!
16
17
0)
0@!
0C!
0v
1l
#590000
b111011 "
0!
1<
06
07
1)
0=
#595000
1!
16
17
0)
0>
0w
1m
0:
0C
1F
03
11
00
0%
1'
0(
1D
1G
0P
1O
1M
1J
0I
0G
1Z
1`
0Z
1[
1a
0[
1~
1i
0}
1t
1s
0~
0i
1}
0j
1j
1~
1y
1o
1k
0~
0y
0o
0k
#600000
b111111 "
b111101 "
b111100 "
0!
0<
08
1;
06
07
1)
19
1k
1V
1e
0X
0f
0n
1g
0s
0h
0x
1i
0}
0j
0t
0k
#605000
1!
16
17
0)
1C!
0l
#610000
b111101 "
0!
1<
06
07
1)
1=
