src/final/LFSR_r/simulation/qsim/lfsr.msim.vcd
$comment
	File created using the following command:
		vcd file lfsr.msim.vcd -direction
$end
$date
	Wed Jun 15 00:30:46 2022
$end
$version
	ModelSim Version 10.1d
$end
$timescale
	1ps
$end
$scope module lfsr_vlg_vec_tst $end
$var reg 6 ! inSeed [0:5] $end
$var wire 1 " outt [0] $end
$var wire 1 # outt [1] $end
$var wire 1 $ outt [2] $end
$var wire 1 % outt [3] $end
$var wire 1 & outt [4] $end
$var wire 1 ' outt [5] $end
$var wire 1 ( sampler $end
$scope module i1 $end
$var wire 1 ) gnd $end
$var wire 1 * vcc $end
$var wire 1 + unknown $end
$var tri1 1 , devclrn $end
$var tri1 1 - devpor $end
$var tri1 1 . devoe $end
$var wire 1 / outt[5]~output_o $end
$var wire 1 0 outt[4]~output_o $end
$var wire 1 1 outt[3]~output_o $end
$var wire 1 2 outt[2]~output_o $end
$var wire 1 3 outt[1]~output_o $end
$var wire 1 4 outt[0]~output_o $end
$var wire 1 5 inSeed[4]~input_o $end
$var wire 1 6 inSeed[3]~input_o $end
$var wire 1 7 inSeed[2]~input_o $end
$var wire 1 8 inSeed[1]~input_o $end
$var wire 1 9 inSeed[0]~input_o $end
$var wire 1 : inSeed[5]~input_o $end
$var wire 1 ; temp~0_combout $end
$upscope $end
$upscope $end
$enddefinitions $end
#0
$dumpvars
b0 !
0'
0&
0%
0$
0#
0"
x(
0)
1*
x+
1,
1-
1.
0/
00
01
02
03
04
05
06
07
08
09
0:
0;
$end
#10000
b1 !
1:
0(
1;
14
1"
#20000
b11 !
b10 !
0:
1(
15
1/
1'
#30000
b11 !
1:
0(
0;
04
0"
#40000
b111 !
b101 !
b100 !
0:
1(
05
16
0/
10
0'
1&
#50000
b101 !
1:
0(
1;
14
1"
#60000
b111 !
b110 !
0:
1(
15
1/
1'
#70000
b111 !
1:
0(
0;
04
0"
#80000
b1111 !
b1011 !
b1001 !
b1000 !
0:
1(
05
06
17
0/
00
11
0'
0&
1%
#90000
b1001 !
1:
0(
1;
14
1"
#100000
b1011 !
b1010 !
0:
1(
15
1/
1'
#110000
b1011 !
1:
0(
0;
04
0"
#120000
b1111 !
b1101 !
b1100 !
0:
1(
05
16
0/
10
0'
1&
#130000
b1101 !
1:
0(
1;
14
1"
#140000
b1111 !
b1110 !
0:
1(
15
1/
1'
#150000
b1111 !
1:
0(
0;
04
0"
#160000
b11111 !
b10111 !
b10011 !
b10001 !
b10000 !
0:
1(
05
06
07
18
0/
00
01
12
0'
0&
0%
1$
#170000
b10001 !
1:
0(
1;
14
1"
#180000
b10011 !
b10010 !
0:
1(
15
1/
1'
#190000
b10011 !
1:
0(
0;
04
0"
#200000
b10111 !
b10101 !
b10100 !
0:
1(
05
16
0/
10
0'
1&
#210000
b10101 !
1:
0(
1;
14
1"
#220000
b10111 !
b10110 !
0:
1(
15
1/
1'
#230000
b10111 !
1:
0(
0;
04
0"
#240000
b11111 !
b11011 !
b11001 !
b11000 !
0:
1(
05
06
17
0/
00
11
0'
0&
1%
#250000
b11001 !
1:
0(
1;
14
1"
#260000
b11011 !
b11010 !
0:
1(
15
1/
1'
#270000
b11011 !
1:
0(
0;
04
0"
#280000
b11111 !
b11101 !
b11100 !
0:
1(
05
16
0/
10
0'
1&
#290000
b11101 !
1:
0(
1;
14
1"
#300000
b11111 !
b11110 !
0:
1(
15
1/
1'
#310000
b11111 !
1:
0(
0;
04
0"
#320000
b111111 !
b101111 !
b100111 !
b100011 !
b100001 !
b100000 !
0:
1(
05
06
07
08
19
0/
00
01
02
13
0'
0&
0%
0$
1#
#330000
b100001 !
1:
0(
1;
14
1"
#340000
b100011 !
b100010 !
0:
1(
15
1/
1'
#350000
b100011 !
1:
0(
0;
04
0"
#360000
b100111 !
b100101 !
b100100 !
0:
1(
05
16
0/
10
0'
1&
#370000
b100101 !
1:
0(
1;
14
1"
#380000
b100111 !
b100110 !
0:
1(
15
1/
1'
#390000
b100111 !
1:
0(
0;
04
0"
#400000
b101111 !
b101011 !
b101001 !
b101000 !
0:
1(
05
06
17
0/
00
11
0'
0&
1%
#410000
b101001 !
1:
0(
1;
14
1"
#420000
b101011 !
b101010 !
0:
1(
15
1/
1'
#430000
b101011 !
1:
0(
0;
04
0"
#440000
b101111 !
b101101 !
b101100 !
0:
1(
05
16
0/
10
0'
1&
#450000
b101101 !
1:
0(
1;
14
1"
#460000
b101111 !
b101110 !
0:
1(
15
1/
1'
#470000
b101111 !
1:
0(
0;
04
0"
#480000
b111111 !
b110111 !
b110011 !
b110001 !
b110000 !
0:
1(
05
06
07
18
0/
00
01
12
0'
0&
0%
1$
#490000
b110001 !
1:
0(
1;
14
1"
#500000
b110011 !
b110010 !
0:
1(
15
1/
1'
#510000
b110011 !
1:
0(
0;
04
0"
#520000
b110111 !
b110101 !
b110100 !
0:
1(
05
16
0/
10
0'
1&
#530000
b110101 !
1:
0(
1;
14
1"
#540000
b110111 !
b110110 !
0:
1(
15
1/
1'
#550000
b110111 !
1:
0(
0;
04
0"
#560000
b111111 !
b111011 !
b111001 !
b111000 !
0:
1(
05
06
17
0/
00
11
0'
0&
1%
#570000
b111001 !
1:
0(
1;
14
1"
#580000
b111011 !
b111010 !
0:
1(
15
1/
1'
#590000
b111011 !
1:
0(
0;
04
0"
#600000
b111111 !
b111101 !
b111100 !
0:
1(
05
16
0/
10
0'
1&
#610000
b111101 !
1:
0(
1;
14
1"
#620000
b111111 !
b111110 !
0:
1(
15
1/
1'
#630000
b111111 !
1:
0(
0;
04
0"
#640000
b11111 !
b1111 !
b111 !
b11 !
b1 !
b0 !
0:
1(
05
06
07
08
09
0/
00
01
02
03
0'
0&
0%
0$
0#
#650000
b1 !
1:
0(
1;
14
1"
#660000
b11 !
b10 !
0:
1(
15
1/
1'
#670000
b11 !
1:
0(
0;
04
0"
#680000
b111 !
b101 !
b100 !
0:
1(
05
16
0/
10
0'
1&
#690000
b101 !
1:
0(
1;
14
1"
#700000
b111 !
b110 !
0:
1(
15
1/
1'
#710000
b111 !
1:
0(
0;
04
0"
#720000
b1111 !
b1011 !
b1001 !
b1000 !
0:
1(
05
06
17
0/
00
11
0'
0&
1%
#730000
b1001 !
1:
0(
1;
14
1"
#740000
b1011 !
b1010 !
0:
1(
15
1/
1'
#750000
b1011 !
1:
0(
0;
04
0"
#760000
b1111 !
b1101 !
b1100 !
0:
1(
05
16
0/
10
0'
1&
#770000
b1101 !
1:
0(
1;
14
1"
#780000
b1111 !
b1110 !
0:
1(
15
1/
1'
#790000
b1111 !
1:
0(
0;
04
0"
#800000
b11111 !
b10111 !
b10011 !
b10001 !
b10000 !
0:
1(
05
06
07
18
0/
00
01
12
0'
0&
0%
1$
#810000
b10001 !
1:
0(
1;
14
1"
#820000
b10011 !
b10010 !
0:
1(
15
1/
1'
#830000
b10011 !
1:
0(
0;
04
0"
#840000
b10111 !
b10101 !
b10100 !
0:
1(
05
16
0/
10
0'
1&
#850000
b10101 !
1:
0(
1;
14
1"
#860000
b10111 !
b10110 !
0:
1(
15
1/
1'
#870000
b10111 !
1:
0(
0;
04
0"
#880000
b11111 !
b11011 !
b11001 !
b11000 !
0:
1(
05
06
17
0/
00
11
0'
0&
1%
#890000
b11001 !
1:
0(
1;
14
1"
#900000
b11011 !
b11010 !
0:
1(
15
1/
1'
#910000
b11011 !
1:
0(
0;
04
0"
#920000
b11111 !
b11101 !
b11100 !
0:
1(
05
16
0/
10
0'
1&
#930000
b11101 !
1:
0(
1;
14
1"
#940000
b11111 !
b11110 !
0:
1(
15
1/
1'
#950000
b11111 !
1:
0(
0;
04
0"
#960000
b111111 !
b101111 !
b100111 !
b100011 !
b100001 !
b100000 !
0:
1(
05
06
07
08
19
0/
00
01
02
13
0'
0&
0%
0$
1#
#970000
b100001 !
1:
0(
1;
14
1"
#980000
b100011 !
b100010 !
0:
1(
15
1/
1'
#990000
b100011 !
1:
0(
0;
04
0"
