src/final/sevenStop/simulation/qsim/SevenStop.msim.vcd
$comment
	File created using the following command:
		vcd file SevenStop.msim.vcd -direction
$end
$date
	Wed Jun 15 11:16:46 2022
$end
$version
	ModelSim Version 10.1d
$end
$timescale
	1ps
$end
$scope module SevenStop_vlg_vec_tst $end
$var reg 1 ! clk $end
$var reg 7 " inputer [0:6] $end
$var reg 1 # x $end
$var wire 1 $ outputer [0] $end
$var wire 1 % outputer [1] $end
$var wire 1 & outputer [2] $end
$var wire 1 ' outputer [3] $end
$var wire 1 ( outputer [4] $end
$var wire 1 ) outputer [5] $end
$var wire 1 * outputer [6] $end
$var wire 1 + sampler $end
$scope module i1 $end
$var wire 1 , gnd $end
$var wire 1 - vcc $end
$var wire 1 . unknown $end
$var tri1 1 / devclrn $end
$var tri1 1 0 devpor $end
$var tri1 1 1 devoe $end
$var wire 1 2 outputer[6]~output_o $end
$var wire 1 3 outputer[5]~output_o $end
$var wire 1 4 outputer[4]~output_o $end
$var wire 1 5 outputer[3]~output_o $end
$var wire 1 6 outputer[2]~output_o $end
$var wire 1 7 outputer[1]~output_o $end
$var wire 1 8 outputer[0]~output_o $end
$var wire 1 9 clk~input_o $end
$var wire 1 : clk~inputclkctrl_outclk $end
$var wire 1 ; inputer[4]~input_o $end
$var wire 1 < inputer[6]~input_o $end
$var wire 1 = inputer[1]~input_o $end
$var wire 1 > inputer[0]~input_o $end
$var wire 1 ? Mux7~0_combout $end
$var wire 1 @ inputer[5]~input_o $end
$var wire 1 A inputer[3]~input_o $end
$var wire 1 B inputer[2]~input_o $end
$var wire 1 C x~input_o $end
$var wire 1 D outputer~2_combout $end
$var wire 1 E outputer~3_combout $end
$var wire 1 F outputer[6]~reg0_q $end
$var wire 1 G outputer~4_combout $end
$var wire 1 H outputer~5_combout $end
$var wire 1 I outputer~6_combout $end
$var wire 1 J outputer[5]~reg0_q $end
$var wire 1 K Mux4~0_combout $end
$var wire 1 L Mux7~1_combout $end
$var wire 1 M Mux6~0_combout $end
$var wire 1 N outputer~7_combout $end
$var wire 1 O outputer~8_combout $end
$var wire 1 P outputer~9_combout $end
$var wire 1 Q outputer[4]~reg0_q $end
$var wire 1 R outputer~10_combout $end
$var wire 1 S Mux8~0_combout $end
$var wire 1 T Mux3~1_combout $end
$var wire 1 U Mux3~0_combout $end
$var wire 1 V outputer~11_combout $end
$var wire 1 W outputer~12_combout $end
$var wire 1 X outputer[3]~reg0_q $end
$var wire 1 Y Mux7~2_combout $end
$var wire 1 Z Mux7~5_combout $end
$var wire 1 [ Mux7~6_combout $end
$var wire 1 \ Mux7~3_combout $end
$var wire 1 ] Mux7~4_combout $end
$var wire 1 ^ Mux7~7_combout $end
$var wire 1 _ outputer[2]~reg0_q $end
$var wire 1 ` outputer[1]~reg0_q $end
$var wire 1 a Mux0~0_combout $end
$var wire 1 b outputer~13_combout $end
$var wire 1 c outputer~14_combout $end
$var wire 1 d outputer[0]~reg0_q $end
$upscope $end
$upscope $end
$enddefinitions $end
#0
$dumpvars
0!
b0 "
0#
0*
0)
0(
0'
0&
0%
0$
x+
0,
1-
x.
1/
10
11
02
03
04
05
06
07
08
09
0:
0;
0<
0=
0>
0?
0@
0A
0B
0C
1D
1E
0F
0G
0H
1I
0J
0K
0L
0M
1N
0O
1P
0Q
0R
0S
0T
0U
1V
0W
0X
0Y
0Z
1[
0\
0]
0^
0_
0`
0a
1b
1c
0d
$end
#2500
b1 "
1<
0+
1S
#5000
1!
b11 "
b10 "
19
0<
1@
1:
1+
0S
0D
1d
1`
1Q
1J
1F
18
17
14
13
12
1$
1%
1(
1)
1*
#7500
b11 "
1<
0+
1S
1M
#10000
b111 "
0!
b101 "
b100 "
0<
0@
1;
09
0:
1+
0M
1D
#12500
b101 "
1<
0+
1a
1Z
#15000
1!
b111 "
b110 "
19
0<
1@
1:
1+
0a
0Z
1K
0D
#17500
b111 "
1<
0+
1a
1M
1G
#20000
b1111 "
b1011 "
0!
b1001 "
b1000 "
0<
0@
0;
1A
09
0:
1+
0a
0M
0G
0K
1D
#22500
b1001 "
1<
0+
#25000
1!
b1011 "
b1010 "
19
0<
1@
1:
1+
#27500
b1011 "
1<
0+
#30000
b1111 "
0!
b1101 "
b1100 "
0<
0@
1;
09
0:
1+
1H
#32500
b1101 "
1<
0+
1a
1Z
1U
#35000
1!
b1111 "
b1110 "
19
0<
1@
1:
1+
0a
0Z
0U
0b
1K
1b
#37500
b1111 "
1<
0+
1a
1U
1G
0b
#40000
b11111 "
b10111 "
b10011 "
0!
b10001 "
b10000 "
0<
0@
0;
0A
1B
09
0:
1+
0a
0U
0S
1b
1T
0K
0H
0I
1I
#42500
b10001 "
1<
0+
1S
0G
#45000
1!
b10011 "
b10010 "
19
0<
1@
1:
1+
0S
0T
#47500
b10011 "
1<
0+
1S
#50000
b10111 "
0!
b10101 "
b10100 "
0<
0@
1;
09
0:
1+
1T
1K
#52500
b10101 "
1<
0+
1Z
#55000
1!
b10111 "
b10110 "
19
0<
1@
1:
1+
0Z
0T
0K
#57500
b10111 "
1<
0+
#60000
b11111 "
b11011 "
0!
b11001 "
b11000 "
0<
0@
0;
1A
09
0:
1+
1G
1T
#62500
b11001 "
1<
0+
1M
0G
#65000
1!
b11011 "
b11010 "
19
0<
1@
1:
1+
0M
0T
#67500
b11011 "
1<
0+
#70000
b11111 "
0!
b11101 "
b11100 "
0<
0@
1;
09
0:
1+
1T
1K
1H
#72500
b11101 "
1<
0+
1Z
1U
1M
0[
#75000
1!
b11111 "
b11110 "
19
0<
1@
1:
1+
0Z
0U
0M
0T
0K
1[
#77500
b11111 "
1<
0+
1U
#80000
b111111 "
b101111 "
b100111 "
b100011 "
0!
b100001 "
b100000 "
0<
0@
0;
0A
0B
1=
09
0:
1+
0U
0S
#82500
b100001 "
1<
0+
1S
#85000
1!
b100011 "
b100010 "
19
0<
1@
1:
1+
0S
0D
#87500
b100011 "
1<
0+
1S
1M
#90000
b100111 "
0!
b100101 "
b100100 "
0<
0@
1;
09
0:
1+
0M
1D
0H
#92500
b100101 "
1<
0+
1a
1Z
#95000
1!
b100111 "
b100110 "
19
0<
1@
1:
1+
0a
0Z
1K
0D
#97500
b100111 "
1<
0+
1a
1M
1G
#100000
b101111 "
b101011 "
0!
b101001 "
b101000 "
0<
0@
0;
1A
09
0:
1+
0a
0M
0G
0K
1D
#102500
b101001 "
1<
0+
#105000
1!
b101011 "
b101010 "
19
0<
1@
1:
1+
#107500
b101011 "
1<
0+
#110000
b101111 "
0!
b101101 "
b101100 "
0<
0@
1;
09
0:
1+
#112500
b101101 "
1<
0+
1a
1Z
#115000
1!
b101111 "
b101110 "
19
0<
1@
1:
1+
0a
0Z
1K
#117500
b101111 "
1<
0+
1a
1G
#120000
b111111 "
b110111 "
b110011 "
0!
b110001 "
b110000 "
0<
0@
0;
0A
1B
09
0:
1+
0a
0S
1\
1T
1R
0K
1H
1W
1]
0I
1^
#122500
b110001 "
1<
0+
0]
1S
0G
0^
0W
1I
#125000
1!
b110011 "
b110010 "
19
0<
1@
1:
1+
1]
0S
0\
0T
0R
1^
0]
0^
#127500
b110011 "
1<
0+
1S
#130000
b110111 "
0!
b110101 "
b110100 "
0<
0@
1;
09
0:
1+
1\
1T
1R
1K
0H
#132500
b110101 "
1<
0+
1Z
#135000
1!
b110111 "
b110110 "
19
0<
1@
1:
1+
0Z
0\
0T
0R
0K
#137500
b110111 "
1<
0+
#140000
b111111 "
b111011 "
0!
b111001 "
b111000 "
0<
0@
0;
1A
09
0:
1+
1G
1T
1R
#142500
b111001 "
1<
0+
1M
0G
#145000
1!
b111011 "
b111010 "
19
0<
1@
1:
1+
0M
0T
0R
#147500
b111011 "
1<
0+
#150000
b111111 "
0!
b111101 "
b111100 "
0<
0@
1;
09
0:
1+
1T
1R
1K
#152500
b111101 "
1<
0+
1Z
1M
#155000
1!
b111111 "
b111110 "
19
0<
1@
1:
1+
0Z
0M
0T
0R
0K
#157500
b111111 "
1<
0+
#160000
1#
b1111111 "
b1011111 "
b1001111 "
b1000111 "
b1000011 "
0!
b1000001 "
b1000000 "
1C
0<
0@
0;
0A
0B
0=
1>
09
0:
1+
1^
0V
0N
1W
0P
#162500
b1000001 "
1<
0+
#165000
1!
b1000011 "
b1000010 "
19
0<
1@
1:
1+
0`
1_
1X
0Q
07
16
15
04
0%
1&
1'
0(
#167500
b1000011 "
1<
0+
1Z
1M
#170000
b1000111 "
0!
b1000101 "
b1000100 "
0<
0@
1;
09
0:
1+
0Z
0M
#172500
b1000101 "
1<
0+
#175000
1!
b1000111 "
b1000110 "
19
0<
1@
1:
1+
#177500
b1000111 "
1<
0+
1M
1G
#180000
b1001111 "
b1001011 "
0!
b1001001 "
b1001000 "
0<
0@
0;
1A
09
0:
1+
0M
0G
#182500
b1001001 "
1<
0+
1O
#185000
1!
b1001011 "
b1001010 "
19
0<
1@
1:
1+
0O
#187500
b1001011 "
1<
0+
1Z
1O
#190000
b1001111 "
0!
b1001101 "
b1001100 "
0<
0@
1;
09
0:
1+
0Z
0O
#192500
b1001101 "
1<
0+
1U
0S
1O
#195000
1!
b1001111 "
b1001110 "
19
0<
1@
1:
1+
0U
1S
0O
#197500
b1001111 "
1<
0+
1U
0S
1O
1G
#200000
b1011111 "
b1010111 "
b1010011 "
0!
b1010001 "
b1010000 "
0<
0@
0;
0A
1B
09
0:
1+
0U
1S
0O
#202500
b1010001 "
1<
0+
1a
0G
#205000
1!
b1010011 "
b1010010 "
19
0<
1@
1:
1+
0a
1K
#207500
b1010011 "
1<
0+
1a
1Z
#210000
b1010111 "
0!
b1010101 "
b1010100 "
0<
0@
1;
09
0:
1+
0a
0Z
0K
#212500
b1010101 "
1<
0+
#215000
1!
b1010111 "
b1010110 "
19
0<
1@
1:
1+
#217500
b1010111 "
1<
0+
#220000
b1011111 "
b1011011 "
0!
b1011001 "
b1011000 "
0<
0@
0;
1A
09
0:
1+
1G
#222500
b1011001 "
1<
0+
1a
1O
1M
0G
#225000
1!
b1011011 "
b1011010 "
19
0<
1@
1:
1+
0a
0O
0M
0b
1K
1b
0c
1c
#227500
b1011011 "
1<
0+
1a
1Z
1O
0b
0[
1P
0c
0^
#230000
b1011111 "
0!
b1011101 "
b1011100 "
0<
0@
1;
09
0:
1+
0a
0Z
0O
1b
0K
1[
0P
1c
1^
#232500
b1011101 "
1<
0+
1U
0S
1O
1M
#235000
1!
b1011111 "
b1011110 "
19
0<
1@
1:
1+
0U
1S
0O
0M
#237500
b1011111 "
1<
0+
1U
0S
1O
#240000
b1111111 "
b1101111 "
b1100111 "
b1100011 "
0!
b1100001 "
b1100000 "
0<
0@
0;
0A
0B
1=
09
0:
1+
0U
1S
0O
#242500
b1100001 "
1<
0+
#245000
1!
b1100011 "
b1100010 "
19
0<
1@
1:
1+
#247500
b1100011 "
1<
0+
1Z
1M
#250000
b1100111 "
0!
b1100101 "
b1100100 "
0<
0@
1;
09
0:
1+
0Z
0M
1L
1H
#252500
b1100101 "
1<
0+
1?
#255000
1!
b1100111 "
b1100110 "
19
0<
1@
1:
1+
0?
1Y
0Y
#257500
b1100111 "
1<
0+
1M
1G
1?
1Y
#260000
b1101111 "
b1101011 "
0!
b1101001 "
b1101000 "
0<
0@
0;
1A
09
0:
1+
0M
0G
0?
0Y
0L
0H
0I
1I
#262500
b1101001 "
1<
0+
#265000
1!
b1101011 "
b1101010 "
19
0<
1@
1:
1+
#267500
b1101011 "
1<
0+
1Z
#270000
b1101111 "
0!
b1101101 "
b1101100 "
0<
0@
1;
09
0:
1+
0Z
1L
#272500
b1101101 "
1<
0+
0S
1?
#275000
1!
b1101111 "
b1101110 "
19
0<
1@
1:
1+
1S
0?
#277500
b1101111 "
1<
0+
0S
1G
1?
#280000
b1111111 "
b1110111 "
b1110011 "
0!
b1110001 "
b1110000 "
0<
0@
0;
0A
1B
09
0:
1+
1S
0?
1\
0L
#282500
b1110001 "
1<
0+
1a
0G
#285000
1!
b1110011 "
b1110010 "
19
0<
1@
1:
1+
0a
0\
1K
#287500
b1110011 "
1<
0+
1a
1Z
#290000
b1110111 "
0!
b1110101 "
b1110100 "
0<
0@
1;
09
0:
1+
0a
0Z
1\
0K
1L
1H
#292500
b1110101 "
1<
0+
1?
#295000
1!
b1110111 "
b1110110 "
19
0<
1@
1:
1+
0?
0\
#297500
b1110111 "
1<
0+
1?
#300000
b1111111 "
b1111011 "
0!
b1111001 "
b1111000 "
0<
0@
0;
1A
09
0:
1+
1G
0?
1Y
0L
0H
0Y
#302500
b1111001 "
1<
0+
1a
1M
0G
#305000
1!
b1111011 "
b1111010 "
19
0<
1@
1:
1+
0a
0M
1K
#307500
b1111011 "
1<
0+
1a
1Z
#310000
b1111111 "
0!
b1111101 "
b1111100 "
0<
0@
1;
09
0:
1+
0a
0Z
0K
1L
#312500
b1111101 "
1<
0+
0S
1M
1?
1Y
#315000
1!
b1111111 "
b1111110 "
19
0<
1@
1:
1+
1S
0M
0?
0Y
#317500
b1111111 "
1<
0+
0S
1?
#320000
0#
b111111 "
b11111 "
b1111 "
b111 "
b11 "
0!
b1 "
b0 "
0C
0<
0@
0;
0A
0B
0=
0>
09
0:
1+
0^
1V
1N
0?
0L
0W
1P
#322500
b1 "
1<
0+
1S
#325000
1!
b11 "
b10 "
19
0<
1@
1:
1+
0S
0D
1`
0_
0X
1Q
17
06
05
14
1%
0&
0'
1(
#327500
b11 "
1<
0+
1S
1M
#330000
b111 "
0!
b101 "
b100 "
0<
0@
1;
09
0:
1+
0M
1D
#332500
b101 "
1<
0+
1a
1Z
#335000
1!
b111 "
b110 "
19
0<
1@
1:
1+
0a
0Z
1K
0D
#337500
b111 "
1<
0+
1a
1M
1G
#340000
b1111 "
b1011 "
0!
b1001 "
b1000 "
0<
0@
0;
1A
09
0:
1+
0a
0M
0G
0K
1D
#342500
b1001 "
1<
0+
#345000
1!
b1011 "
b1010 "
19
0<
1@
1:
1+
#347500
b1011 "
1<
0+
#350000
b1111 "
0!
b1101 "
b1100 "
0<
0@
1;
09
0:
1+
1H
#352500
b1101 "
1<
0+
1a
1Z
1U
#355000
1!
b1111 "
b1110 "
19
0<
1@
1:
1+
0a
0Z
0U
0b
1K
1b
#357500
b1111 "
1<
0+
1a
1U
1G
0b
#360000
b11111 "
b10111 "
b10011 "
0!
b10001 "
b10000 "
0<
0@
0;
0A
1B
09
0:
1+
0a
0U
0S
1b
1T
0K
0H
0I
1I
#362500
b10001 "
1<
0+
1S
0G
#365000
1!
b10011 "
b10010 "
19
0<
1@
1:
1+
0S
0T
#367500
b10011 "
1<
0+
1S
#370000
b10111 "
0!
b10101 "
b10100 "
0<
0@
1;
09
0:
1+
1T
1K
#372500
b10101 "
1<
0+
1Z
#375000
1!
b10111 "
b10110 "
19
0<
1@
1:
1+
0Z
0T
0K
#377500
b10111 "
1<
0+
#380000
b11111 "
b11011 "
0!
b11001 "
b11000 "
0<
0@
0;
1A
09
0:
1+
1G
1T
#382500
b11001 "
1<
0+
1M
0G
#385000
1!
b11011 "
b11010 "
19
0<
1@
1:
1+
0M
0T
#387500
b11011 "
1<
0+
#390000
b11111 "
0!
b11101 "
b11100 "
0<
0@
1;
09
0:
1+
1T
1K
1H
#392500
b11101 "
1<
0+
1Z
1U
1M
0[
#395000
1!
b11111 "
b11110 "
19
0<
1@
1:
1+
0Z
0U
0M
0T
0K
1[
#397500
b11111 "
1<
0+
1U
#400000
b111111 "
b101111 "
b100111 "
b100011 "
0!
b100001 "
b100000 "
0<
0@
0;
0A
0B
1=
09
0:
1+
0U
0S
#402500
b100001 "
1<
0+
1S
#405000
1!
b100011 "
b100010 "
19
0<
1@
1:
1+
0S
0D
#407500
b100011 "
1<
0+
1S
1M
#410000
b100111 "
0!
b100101 "
b100100 "
0<
0@
1;
09
0:
1+
0M
1D
0H
#412500
b100101 "
1<
0+
1a
1Z
#415000
1!
b100111 "
b100110 "
19
0<
1@
1:
1+
0a
0Z
1K
0D
#417500
b100111 "
1<
0+
1a
1M
1G
#420000
b101111 "
b101011 "
0!
b101001 "
b101000 "
0<
0@
0;
1A
09
0:
1+
0a
0M
0G
0K
1D
#422500
b101001 "
1<
0+
#425000
1!
b101011 "
b101010 "
19
0<
1@
1:
1+
#427500
b101011 "
1<
0+
#430000
b101111 "
0!
b101101 "
b101100 "
0<
0@
1;
09
0:
1+
#432500
b101101 "
1<
0+
1a
1Z
#435000
1!
b101111 "
b101110 "
19
0<
1@
1:
1+
0a
0Z
1K
#437500
b101111 "
1<
0+
1a
1G
#440000
b111111 "
b110111 "
b110011 "
0!
b110001 "
b110000 "
0<
0@
0;
0A
1B
09
0:
1+
0a
0S
1\
1T
1R
0K
1H
1W
1]
0I
1^
#442500
b110001 "
1<
0+
0]
1S
0G
0^
0W
1I
#445000
1!
b110011 "
b110010 "
19
0<
1@
1:
1+
1]
0S
0\
0T
0R
1^
0]
0^
#447500
b110011 "
1<
0+
1S
#450000
b110111 "
0!
b110101 "
b110100 "
0<
0@
1;
09
0:
1+
1\
1T
1R
1K
0H
#452500
b110101 "
1<
0+
1Z
#455000
1!
b110111 "
b110110 "
19
0<
1@
1:
1+
0Z
0\
0T
0R
0K
#457500
b110111 "
1<
0+
#460000
b111111 "
b111011 "
0!
b111001 "
b111000 "
0<
0@
0;
1A
09
0:
1+
1G
1T
1R
#462500
b111001 "
1<
0+
1M
0G
#465000
1!
b111011 "
b111010 "
19
0<
1@
1:
1+
0M
0T
0R
#467500
b111011 "
1<
0+
#470000
b111111 "
0!
b111101 "
b111100 "
0<
0@
1;
09
0:
1+
1T
1R
1K
#472500
b111101 "
1<
0+
1Z
1M
#475000
1!
b111111 "
b111110 "
19
0<
1@
1:
1+
0Z
0M
0T
0R
0K
#477500
b111111 "
1<
0+
#480000
1#
b1111111 "
b1011111 "
b1001111 "
b1000111 "
b1000011 "
0!
b1000001 "
b1000000 "
1C
0<
0@
0;
0A
0B
0=
1>
09
0:
1+
1^
0V
0N
1W
0P
#482500
b1000001 "
1<
0+
#485000
1!
b1000011 "
b1000010 "
19
0<
1@
1:
1+
0`
1_
1X
0Q
07
16
15
04
0%
1&
1'
0(
#487500
b1000011 "
1<
0+
1Z
1M
#490000
b1000111 "
0!
b1000101 "
b1000100 "
0<
0@
1;
09
0:
1+
0Z
0M
#492500
b1000101 "
1<
0+
#495000
1!
b1000111 "
b1000110 "
19
0<
1@
1:
1+
#497500
b1000111 "
1<
0+
1M
1G
#500000
b1001111 "
b1001011 "
0!
b1001001 "
b1001000 "
0<
0@
0;
1A
09
0:
1+
0M
0G
#502500
b1001001 "
1<
0+
1O
#505000
1!
b1001011 "
b1001010 "
19
0<
1@
1:
1+
0O
#507500
b1001011 "
1<
0+
1Z
1O
#510000
b1001111 "
0!
b1001101 "
b1001100 "
0<
0@
1;
09
0:
1+
0Z
0O
#512500
b1001101 "
1<
0+
1U
0S
1O
#515000
1!
b1001111 "
b1001110 "
19
0<
1@
1:
1+
0U
1S
0O
#517500
b1001111 "
1<
0+
1U
0S
1O
1G
#520000
b1011111 "
b1010111 "
b1010011 "
0!
b1010001 "
b1010000 "
0<
0@
0;
0A
1B
09
0:
1+
0U
1S
0O
#522500
b1010001 "
1<
0+
1a
0G
#525000
1!
b1010011 "
b1010010 "
19
0<
1@
1:
1+
0a
1K
#527500
b1010011 "
1<
0+
1a
1Z
#530000
b1010111 "
0!
b1010101 "
b1010100 "
0<
0@
1;
09
0:
1+
0a
0Z
0K
#532500
b1010101 "
1<
0+
#535000
1!
b1010111 "
b1010110 "
19
0<
1@
1:
1+
#537500
b1010111 "
1<
0+
#540000
b1011111 "
b1011011 "
0!
b1011001 "
b1011000 "
0<
0@
0;
1A
09
0:
1+
1G
#542500
b1011001 "
1<
0+
1a
1O
1M
0G
#545000
1!
b1011011 "
b1011010 "
19
0<
1@
1:
1+
0a
0O
0M
0b
1K
1b
0c
1c
#547500
b1011011 "
1<
0+
1a
1Z
1O
0b
0[
1P
0c
0^
#550000
b1011111 "
0!
b1011101 "
b1011100 "
0<
0@
1;
09
0:
1+
0a
0Z
0O
1b
0K
1[
0P
1c
1^
#552500
b1011101 "
1<
0+
1U
0S
1O
1M
#555000
1!
b1011111 "
b1011110 "
19
0<
1@
1:
1+
0U
1S
0O
0M
#557500
b1011111 "
1<
0+
1U
0S
1O
#560000
b1111111 "
b1101111 "
b1100111 "
b1100011 "
0!
b1100001 "
b1100000 "
0<
0@
0;
0A
0B
1=
09
0:
1+
0U
1S
0O
#562500
b1100001 "
1<
0+
#565000
1!
b1100011 "
b1100010 "
19
0<
1@
1:
1+
#567500
b1100011 "
1<
0+
1Z
1M
#570000
b1100111 "
0!
b1100101 "
b1100100 "
0<
0@
1;
09
0:
1+
0Z
0M
1L
1H
#572500
b1100101 "
1<
0+
1?
#575000
1!
b1100111 "
b1100110 "
19
0<
1@
1:
1+
0?
1Y
0Y
#577500
b1100111 "
1<
0+
1M
1G
1?
1Y
#580000
b1101111 "
b1101011 "
0!
b1101001 "
b1101000 "
0<
0@
0;
1A
09
0:
1+
0M
0G
0?
0Y
0L
0H
0I
1I
#582500
b1101001 "
1<
0+
#585000
1!
b1101011 "
b1101010 "
19
0<
1@
1:
1+
#587500
b1101011 "
1<
0+
1Z
#590000
b1101111 "
0!
b1101101 "
b1101100 "
0<
0@
1;
09
0:
1+
0Z
1L
#592500
b1101101 "
1<
0+
0S
1?
#595000
1!
b1101111 "
b1101110 "
19
0<
1@
1:
1+
1S
0?
#597500
b1101111 "
1<
0+
0S
1G
1?
#600000
b1111111 "
b1110111 "
b1110011 "
0!
b1110001 "
b1110000 "
0<
0@
0;
0A
1B
09
0:
1+
1S
0?
1\
0L
#602500
b1110001 "
1<
0+
1a
0G
#605000
1!
b1110011 "
b1110010 "
19
0<
1@
1:
1+
0a
0\
1K
#607500
b1110011 "
1<
0+
1a
1Z
#610000
b1110111 "
0!
b1110101 "
b1110100 "
0<
0@
1;
09
0:
1+
0a
0Z
1\
0K
1L
1H
#612500
b1110101 "
1<
0+
1?
#615000
1!
b1110111 "
b1110110 "
19
0<
1@
1:
1+
0?
0\
#617500
b1110111 "
1<
0+
1?
#620000
b1111111 "
b1111011 "
0!
b1111001 "
b1111000 "
0<
0@
0;
1A
09
0:
1+
1G
0?
1Y
0L
0H
0Y
#622500
b1111001 "
1<
0+
1a
1M
0G
#625000
1!
b1111011 "
b1111010 "
19
0<
1@
1:
1+
0a
0M
1K
#627500
b1111011 "
1<
0+
1a
1Z
#630000
b1111111 "
0!
b1111101 "
b1111100 "
0<
0@
1;
09
0:
1+
0a
0Z
0K
1L
#632500
b1111101 "
1<
0+
0S
1M
1?
1Y
#635000
1!
b1111111 "
b1111110 "
19
0<
1@
1:
1+
1S
0M
0?
0Y
#637500
b1111111 "
1<
0+
0S
1?
#640000
0#
b111111 "
b11111 "
b1111 "
b111 "
b11 "
0!
b1 "
b0 "
0C
0<
0@
0;
0A
0B
0=
0>
09
0:
1+
0^
1V
1N
0?
0L
0W
1P
#642500
b1 "
1<
0+
1S
#645000
1!
b11 "
b10 "
19
0<
1@
1:
1+
0S
0D
1`
0_
0X
1Q
17
06
05
14
1%
0&
0'
1(
#647500
b11 "
1<
0+
1S
1M
#650000
b111 "
0!
b101 "
b100 "
0<
0@
1;
09
0:
1+
0M
1D
#652500
b101 "
1<
0+
1a
1Z
#655000
1!
b111 "
b110 "
19
0<
1@
1:
1+
0a
0Z
1K
0D
#657500
b111 "
1<
0+
1a
1M
1G
#660000
b1111 "
b1011 "
0!
b1001 "
b1000 "
0<
0@
0;
1A
09
0:
1+
0a
0M
0G
0K
1D
#662500
b1001 "
1<
0+
#665000
1!
b1011 "
b1010 "
19
0<
1@
1:
1+
#667500
b1011 "
1<
0+
#670000
b1111 "
0!
b1101 "
b1100 "
0<
0@
1;
09
0:
1+
1H
#672500
b1101 "
1<
0+
1a
1Z
1U
#675000
1!
b1111 "
b1110 "
19
0<
1@
1:
1+
0a
0Z
0U
0b
1K
1b
#677500
b1111 "
1<
0+
1a
1U
1G
0b
#680000
b11111 "
b10111 "
b10011 "
0!
b10001 "
b10000 "
0<
0@
0;
0A
1B
09
0:
1+
0a
0U
0S
1b
1T
0K
0H
0I
1I
#682500
b10001 "
1<
0+
1S
0G
#685000
1!
b10011 "
b10010 "
19
0<
1@
1:
1+
0S
0T
#687500
b10011 "
1<
0+
1S
#690000
b10111 "
0!
b10101 "
b10100 "
0<
0@
1;
09
0:
1+
1T
1K
#692500
b10101 "
1<
0+
1Z
#695000
1!
b10111 "
b10110 "
19
0<
1@
1:
1+
0Z
0T
0K
#697500
b10111 "
1<
0+
#700000
b11111 "
b11011 "
0!
b11001 "
b11000 "
0<
0@
0;
1A
09
0:
1+
1G
1T
#702500
b11001 "
1<
0+
1M
0G
#705000
1!
b11011 "
b11010 "
19
0<
1@
1:
1+
0M
0T
#707500
b11011 "
1<
0+
#710000
b11111 "
0!
b11101 "
b11100 "
0<
0@
1;
09
0:
1+
1T
1K
1H
#712500
b11101 "
1<
0+
1Z
1U
1M
0[
#715000
1!
b11111 "
b11110 "
19
0<
1@
1:
1+
0Z
0U
0M
0T
0K
1[
#717500
b11111 "
1<
0+
1U
#720000
b111111 "
b101111 "
b100111 "
b100011 "
0!
b100001 "
b100000 "
0<
0@
0;
0A
0B
1=
09
0:
1+
0U
0S
#722500
b100001 "
1<
0+
1S
#725000
1!
b100011 "
b100010 "
19
0<
1@
1:
1+
0S
0D
#727500
b100011 "
1<
0+
1S
1M
#730000
b100111 "
0!
b100101 "
b100100 "
0<
0@
1;
09
0:
1+
0M
1D
0H
#732500
b100101 "
1<
0+
1a
1Z
#735000
1!
b100111 "
b100110 "
19
0<
1@
1:
1+
0a
0Z
1K
0D
#737500
b100111 "
1<
0+
1a
1M
1G
#740000
b101111 "
b101011 "
0!
b101001 "
b101000 "
0<
0@
0;
1A
09
0:
1+
0a
0M
0G
0K
1D
#742500
b101001 "
1<
0+
#745000
1!
b101011 "
b101010 "
19
0<
1@
1:
1+
#747500
b101011 "
1<
0+
#750000
b101111 "
0!
b101101 "
b101100 "
0<
0@
1;
09
0:
1+
#752500
b101101 "
1<
0+
1a
1Z
#755000
1!
b101111 "
b101110 "
19
0<
1@
1:
1+
0a
0Z
1K
#757500
b101111 "
1<
0+
1a
1G
#760000
b111111 "
b110111 "
b110011 "
0!
b110001 "
b110000 "
0<
0@
0;
0A
1B
09
0:
1+
0a
0S
1\
1T
1R
0K
1H
1W
1]
0I
1^
#762500
b110001 "
1<
0+
0]
1S
0G
0^
0W
1I
#765000
1!
b110011 "
b110010 "
19
0<
1@
1:
1+
1]
0S
0\
0T
0R
1^
0]
0^
#767500
b110011 "
1<
0+
1S
#770000
b110111 "
0!
b110101 "
b110100 "
0<
0@
1;
09
0:
1+
1\
1T
1R
1K
0H
#772500
b110101 "
1<
0+
1Z
#775000
1!
b110111 "
b110110 "
19
0<
1@
1:
1+
0Z
0\
0T
0R
0K
#777500
b110111 "
1<
0+
#780000
b111111 "
b111011 "
0!
b111001 "
b111000 "
0<
0@
0;
1A
09
0:
1+
1G
1T
1R
#782500
b111001 "
1<
0+
1M
0G
#785000
1!
b111011 "
b111010 "
19
0<
1@
1:
1+
0M
0T
0R
#787500
b111011 "
1<
0+
#790000
b111111 "
0!
b111101 "
b111100 "
0<
0@
1;
09
0:
1+
1T
1R
1K
#792500
b111101 "
1<
0+
1Z
1M
#795000
1!
b111111 "
b111110 "
19
0<
1@
1:
1+
0Z
0M
0T
0R
0K
#797500
b111111 "
1<
0+
#800000
1#
b1111111 "
b1011111 "
b1001111 "
b1000111 "
b1000011 "
0!
b1000001 "
b1000000 "
1C
0<
0@
0;
0A
0B
0=
1>
09
0:
1+
1^
0V
0N
1W
0P
#802500
b1000001 "
1<
0+
#805000
1!
b1000011 "
b1000010 "
19
0<
1@
1:
1+
0`
1_
1X
0Q
07
16
15
04
0%
1&
1'
0(
#807500
b1000011 "
1<
0+
1Z
1M
#810000
b1000111 "
0!
b1000101 "
b1000100 "
0<
0@
1;
09
0:
1+
0Z
0M
#812500
b1000101 "
1<
0+
#815000
1!
b1000111 "
b1000110 "
19
0<
1@
1:
1+
#817500
b1000111 "
1<
0+
1M
1G
#820000
b1001111 "
b1001011 "
0!
b1001001 "
b1001000 "
0<
0@
0;
1A
09
0:
1+
0M
0G
#822500
b1001001 "
1<
0+
1O
#825000
1!
b1001011 "
b1001010 "
19
0<
1@
1:
1+
0O
#827500
b1001011 "
1<
0+
1Z
1O
#830000
b1001111 "
0!
b1001101 "
b1001100 "
0<
0@
1;
09
0:
1+
0Z
0O
#832500
b1001101 "
1<
0+
1U
0S
1O
#835000
1!
b1001111 "
b1001110 "
19
0<
1@
1:
1+
0U
1S
0O
#837500
b1001111 "
1<
0+
1U
0S
1O
1G
#840000
b1011111 "
b1010111 "
b1010011 "
0!
b1010001 "
b1010000 "
0<
0@
0;
0A
1B
09
0:
1+
0U
1S
0O
#842500
b1010001 "
1<
0+
1a
0G
#845000
1!
b1010011 "
b1010010 "
19
0<
1@
1:
1+
0a
1K
#847500
b1010011 "
1<
0+
1a
1Z
#850000
b1010111 "
0!
b1010101 "
b1010100 "
0<
0@
1;
09
0:
1+
0a
0Z
0K
#852500
b1010101 "
1<
0+
#855000
1!
b1010111 "
b1010110 "
19
0<
1@
1:
1+
#857500
b1010111 "
1<
0+
#860000
b1011111 "
b1011011 "
0!
b1011001 "
b1011000 "
0<
0@
0;
1A
09
0:
1+
1G
#862500
b1011001 "
1<
0+
1a
1O
1M
0G
#865000
1!
b1011011 "
b1011010 "
19
0<
1@
1:
1+
0a
0O
0M
0b
1K
1b
0c
1c
#867500
b1011011 "
1<
0+
1a
1Z
1O
0b
0[
1P
0c
0^
